{
  "name": "Befriend Companion",
  "type": "feat",
  "img": "systems/pf1/icons/feats/augument-summoning.jpg",
  "data": {
    "description": {
      "value": "<p><em>The Adventurer attracts an unbound spirit, together they shape the creature's body by sharing parts of their souls.</em></p>\n<p>&nbsp;</p>\n<p><strong>Prerequisites</strong></p>\n<p>Handle Animal: 1 rank</p>\n<p>&nbsp;</p>\n<p><strong>Benefits</strong></p>\n<p class=\"stat-block-1\">The Adventurer gains a Companion, choosing one of the origins below to represent what form the Companion takes.</p>\n<p class=\"stat-block-1\">In combat, the Companion acts during your turn. It can take move actions and make attacks of opportunity on its own, but the only action it takes is the Total Defense action, unless the Adventurer takes a move action on your turn to command it to take another action. When the Companion is struck in combat the Adventurer must succeed on a Handle Animal Check DC15 to calm the Companion or the Companion flees. The Companion has Health equal to double its level and is banished from the Physical Realm when its Health reaches 0, dealing its total Health as damage to the Adventurer. A banished Companion is resummoned, at full Health, at the end of a Long Rest.</p>\n<table style=\"height: 176px; width: 98.6014%; margin-left: auto; margin-right: auto;\" border=\"1\">\n<tbody>\n<tr style=\"height: 16px;\">\n<td style=\"height: 32px; width: 13.501%; text-align: center; vertical-align: middle;\" rowspan=\"2\">Origin</td>\n<td style=\"width: 54.7724%; height: 32px; text-align: center; vertical-align: middle;\" rowspan=\"2\">Special Abilities</td>\n<td style=\"width: 29.6296%; height: 16px; text-align: center; vertical-align: middle;\" colspan=\"3\">Attribute Adj.</td>\n</tr>\n<tr style=\"height: 16px;\">\n<td style=\"width: 24px; height: 16px; text-align: center; vertical-align: middle;\">STR</td>\n<td style=\"width: 24px; height: 16px; text-align: center; vertical-align: middle;\">DEX</td>\n<td style=\"width: 24px; height: 16px; text-align: center; vertical-align: middle;\">STA</td>\n</tr>\n<tr style=\"height: 16px;\">\n<td style=\"width: 13.501%; height: 16px; text-align: center; vertical-align: middle;\">Amphibian</td>\n<td style=\"width: 54.7724%; height: 16px; text-align: center; vertical-align: middle;\">Medium, Swim,&nbsp; Limb(Legs) x2,&nbsp; Improved Natural Armor&nbsp;</td>\n<td style=\"width: 24px; height: 16px; text-align: center; vertical-align: middle;\">+2</td>\n<td style=\"width: 24px; height: 16px; text-align: center; vertical-align: middle;\">+0</td>\n<td style=\"width: 24px; height: 16px; text-align: center; vertical-align: middle;\">+4</td>\n</tr>\n<tr style=\"height: 16px;\">\n<td style=\"width: 13.501%; height: 16px; text-align: center; vertical-align: middle;\">Arachnid</td>\n<td style=\"width: 54.7724%; height: 16px; text-align: center; vertical-align: middle;\">Climb, Limb(Legs) x4</td>\n<td style=\"width: 24px; height: 16px; text-align: center; vertical-align: middle;\">+2</td>\n<td style=\"width: 24px; height: 16px; text-align: center; vertical-align: middle;\">+6</td>\n<td style=\"width: 24px; height: 16px; text-align: center; vertical-align: middle;\">-2</td>\n</tr>\n<tr style=\"height: 16px;\">\n<td style=\"width: 13.501%; height: 16px; text-align: center; vertical-align: middle;\">Avion</td>\n<td style=\"width: 54.7724%; height: 16px; text-align: center; vertical-align: middle;\">Flight x2, Claws, Limb(Legs),&nbsp; Improved Natural Armor</td>\n<td style=\"width: 24px; height: 16px; text-align: center; vertical-align: middle;\">-2</td>\n<td style=\"width: 24px; height: 16px; text-align: center; vertical-align: middle;\">+6</td>\n<td style=\"width: 24px; height: 16px; text-align: center; vertical-align: middle;\">+2</td>\n</tr>\n<tr style=\"height: 16px;\">\n<td style=\"width: 13.501%; height: 16px; text-align: center; vertical-align: middle;\">Biped</td>\n<td style=\"width: 54.7724%; height: 16px; text-align: center; vertical-align: middle;\">Bite, Limb(Arms), Medium, Limb(Legs),&nbsp; Improved Natural Armor</td>\n<td style=\"width: 24px; height: 16px; text-align: center; vertical-align: middle;\">+4</td>\n<td style=\"width: 24px; height: 16px; text-align: center; vertical-align: middle;\">+2</td>\n<td style=\"width: 24px; height: 16px; text-align: center; vertical-align: middle;\">+0</td>\n</tr>\n<tr style=\"height: 16px;\">\n<td style=\"width: 13.501%; height: 16px; text-align: center; vertical-align: middle;\">Crustacean</td>\n<td style=\"width: 54.7724%; height: 16px; text-align: center; vertical-align: middle;\">Swim, Limb(Arms), Limb(legs) x3</td>\n<td style=\"width: 24px; height: 16px; text-align: center; vertical-align: middle;\">+2</td>\n<td style=\"width: 24px; height: 16px; text-align: center; vertical-align: middle;\">+2</td>\n<td style=\"width: 24px; height: 16px; text-align: center; vertical-align: middle;\">+2</td>\n</tr>\n<tr style=\"height: 16px;\">\n<td style=\"width: 13.501%; height: 16px; text-align: center; vertical-align: middle;\">Fossorial</td>\n<td style=\"width: 54.7724%; height: 16px; text-align: center; vertical-align: middle;\">Burrow, Claws,&nbsp; Limb(Arms),&nbsp; Limb(Legs),&nbsp; Improved Natural Armor</td>\n<td style=\"width: 24px; height: 16px; text-align: center; vertical-align: middle;\">-2</td>\n<td style=\"width: 24px; height: 16px; text-align: center; vertical-align: middle;\">+2</td>\n<td style=\"width: 24px; height: 16px; text-align: center; vertical-align: middle;\">+6</td>\n</tr>\n<tr style=\"height: 16px;\">\n<td style=\"width: 13.501%; height: 16px; text-align: center; vertical-align: middle;\">Quadruped</td>\n<td style=\"width: 54.7724%; height: 16px; text-align: center; vertical-align: middle;\">Medium, Claws,&nbsp; Limb(Legs) x2,&nbsp; Improved Natural Armor</td>\n<td style=\"width: 24px; height: 16px; text-align: center; vertical-align: middle;\">+0</td>\n<td style=\"width: 24px; height: 16px; text-align: center; vertical-align: middle;\">+4</td>\n<td style=\"width: 24px; height: 16px; text-align: center; vertical-align: middle;\">+2</td>\n</tr>\n<tr style=\"height: 16px;\">\n<td style=\"width: 13.501%; height: 16px; text-align: center; vertical-align: middle;\">Serpentine</td>\n<td style=\"width: 54.7724%; height: 16px; text-align: center; vertical-align: middle;\">Medium, Climb, Swim, Bite, Improved Natural Armor</td>\n<td style=\"width: 24px; height: 16px; text-align: center; vertical-align: middle;\">+6</td>\n<td style=\"width: 24px; height: 16px; text-align: center; vertical-align: middle;\">+2</td>\n<td style=\"width: 24px; height: 16px; text-align: center; vertical-align: middle;\">-2</td>\n</tr>\n<tr style=\"height: 16px;\">\n<td style=\"width: 13.501%; height: 16px; text-align: center; vertical-align: middle;\">Tauric</td>\n<td style=\"width: 54.7724%; height: 16px; text-align: center; vertical-align: middle;\">Bite, Limb(Arms), Limb(Legs) x2,&nbsp; Improved Natural Armor</td>\n<td style=\"width: 24px; height: 16px; text-align: center; vertical-align: middle;\">+6</td>\n<td style=\"width: 24px; height: 16px; text-align: center; vertical-align: middle;\">-2</td>\n<td style=\"width: 24px; height: 16px; text-align: center; vertical-align: middle;\">+2</td>\n</tr>\n</tbody>\n</table>\n<p class=\"stat-block-1\"><br /><strong>Special</strong></p>\n<p class=\"stat-block-1\">All Companions have a base land speed of 20, have 10 in all attributes, and have a +2 natural bonus to AC. Additionally, all companions are small unless noted otherwise. The Companion&rsquo;s level is equal to the Adventurer&rsquo;s ranks in Handle Animal, to a maximum of 4. The Companion does not gain any feats, skills, or ASI based on level - level is instead used to determine the Companion&rsquo;s Health and other statistics.</p>",
      "chat": "",
      "unidentified": ""
    },
    "tags": [
      [
        "Companion"
      ]
    ],
    "activation": {
      "cost": 1,
      "type": ""
    },
    "unchainedAction": {
      "activation": {
        "cost": 1,
        "type": ""
      }
    },
    "duration": {
      "value": null,
      "units": ""
    },
    "target": {
      "value": ""
    },
    "range": {
      "value": null,
      "units": "",
      "maxIncrements": 1,
      "minValue": null,
      "minUnits": ""
    },
    "uses": {
      "value": 0,
      "max": 0,
      "per": null,
      "autoDeductCharges": true,
      "autoDeductChargesCost": "1"
    },
    "measureTemplate": {
      "type": "",
      "size": "",
      "overrideColor": false,
      "customColor": "",
      "overrideTexture": false,
      "customTexture": ""
    },
    "attackName": "",
    "actionType": "",
    "attackBonus": "",
    "critConfirmBonus": "",
    "damage": {
      "parts": [],
      "critParts": [],
      "nonCritParts": []
    },
    "attackParts": [],
    "formulaicAttacks": {
      "count": {
        "formula": "",
        "value": null
      },
      "bonus": {
        "formula": ""
      },
      "label": null
    },
    "formula": "",
    "ability": {
      "attack": null,
      "damage": null,
      "damageMult": 1,
      "critRange": 20,
      "critMult": 2
    },
    "save": {
      "dc": 0,
      "type": "",
      "description": ""
    },
    "effectNotes": "",
    "attackNotes": [],
    "soundEffect": "",
    "changes": [],
    "changeFlags": {
      "loseDexToAC": false
    },
    "contextNotes": [],
    "links": {
      "children": [],
      "charges": []
    },
    "tag": "befriendCompanion",
    "useCustomTag": false,
    "armorProf": {
      "value": [],
      "custom": ""
    },
    "weaponProf": {
      "value": [],
      "custom": ""
    },
    "flags": {
      "boolean": [],
      "dictionary": []
    },
    "scriptCalls": [],
    "featType": "feat",
    "featTier": 0,
    "associations": {
      "classes": []
    },
    "showInQuickbar": false,
    "abilityType": "none",
    "crOffset": "",
    "disabled": false,
    "nonlethal": false,
    "conditionals": [],
    "identifiedName": "Befriend Companion"
  },
  "effects": [],
  "sort": 0,
  "flags": {}
}