{
  "_id": "NFxHebU1XhEs5WJh",
  "name": "Channel Negative Energy",
  "permission": {
    "default": 0
  },
  "type": "feat",
  "data": {
    "parentFeat": "channelPositiveEnergy",
    "description": {
      "value": "\n                <i>The Adventurer redirects and condenses the Plane of Shadows' free flowing energy through all living creatures near them.</i>\n                <br />\n                <br />\n                \n                <p><b>Prerequisites</b></p>\n                <p> Channel Positive Energy, Conviction: 15</p>\n                \n            <br />\n                <p><b>Benefits</b></p>\n                <p><p class=\"stat-block-1\"> The Adventurer deals their Channel Energy Dice as Necrotic damage to all living creatures within 30ft of them, Basic Spirit Save, DC the Adventurer’s Faith score. Channel Negative Energy takes a Standard Action and costs a charge of Channel Energy.</p></p>\n                \n<p><b>Special</b></p>\n                <p><p class=\"stat-block-1\"> Channel Negative Energy heals undead instead of damaging them.</p></p>            \n            ",
      "chat": "",
      "unidentified": ""
    },
    "tags": [
      [
        "Channeling"
      ]
    ],
    "activation": {
      "cost": 1,
      "type": "standard"
    },
    "unchainedAction": {
      "activation": {
        "cost": 1,
        "type": ""
      }
    },
    "duration": {
      "value": null,
      "units": ""
    },
    "target": {
      "value": ""
    },
    "range": {
      "value": null,
      "units": "",
      "maxIncrements": 1,
      "minValue": null,
      "minUnits": "",
      "long": null
    },
    "uses": {
      "value": 0,
      "max": 0,
      "per": "longRest",
      "maxFormula": "@abilities.cnv.mod",
      "autoDeductCharges": true,
      "autoDeductChargesCost": "1"
    },
    "measureTemplate": {
      "type": "circle",
      "size": "30",
      "overrideColor": false,
      "customColor": "",
      "overrideTexture": false,
      "customTexture": ""
    },
    "attackName": "",
    "actionType": "save",
    "attackBonus": "",
    "critConfirmBonus": "",
    "damage": {
      "parts": [
        [
          "(@attributes.feats.channeling)d6",
          "Necrotic"
        ]
      ],
      "critParts": [],
      "nonCritParts": []
    },
    "attackParts": [],
    "formulaicAttacks": {
      "count": {
        "formula": "",
        "value": null
      },
      "bonus": {
        "formula": ""
      },
      "label": null
    },
    "formula": "",
    "ability": {
      "attack": null,
      "damage": null,
      "damageMult": 1,
      "critRange": 20,
      "critMult": 2
    },
    "save": {
      "dc": "@abilities.fth.total",
      "type": "sprSave",
      "description": "Spirit half"
    },
    "effectNotes": "",
    "attackNotes": [],
    "soundEffect": "",
    "changes": [],
    "changeFlags": {
      "loseDexToAC": false,
      "noStr": false,
      "noDex": false,
      "oneInt": false,
      "oneWis": false,
      "oneCha": false
    },
    "contextNotes": [],
    "links": {
      "children": [],
      "charges": []
    },
    "tag": "channelNegativeEnergy",
    "useCustomTag": false,
    "armorProf": {
      "value": [],
      "custom": ""
    },
    "weaponProf": {
      "value": [],
      "custom": ""
    },
    "flags": {
      "boolean": [],
      "dictionary": []
    },
    "featType": "feat",
    "featTier": 1,
    "associations": {
      "classes": []
    },
    "showInQuickbar": false,
    "abilityType": "none",
    "crOffset": "",
    "disabled": false,
    "recharge": {
      "value": null,
      "charged": false,
      "_deprecated": true
    },
    "time": {
      "value": "",
      "_deprecated": true
    },
    "damageType": {
      "value": "",
      "_deprecated": true
    },
    "attack": {
      "parts": []
    }
  },
  "flags": {},
  "img": "systems/pf1/icons/feats/channel.jpg",
  "effects": []
}