{
  "name": "Favorable Terrain",
  "type": "feat",
  "img": "systems/pf1/icons/feats/know-your-enemy.jpg",
  "data": {
    "parentFeat": "reasonableTracker",
    "description": {
      "value": "<p><em>The Adventurer spends part of their time resting scouting around.</em></p>\n<p><strong>Prerequisites:</strong></p>\n<p>Reasonable Tracker<br />Reason: 3 ranks</p>\n<p>&nbsp;</p>\n<p><strong>Benefits</strong></p>\n<p>The Adventurer may choose to not recover Hit Dice while short resting to make a Reason Check [[1d20 + @skills.rsn.mod]] to gain benefits limited to the terrain they are in. While the Adventurer remains in the same type of terrain, or until they take another rest, they gain a benefit determined by a Reason Check. The bonuses from Favorable Terrain stack the better the role.&nbsp;</p>\n<table>\n<thead>\n<tr>\n<th colspan=\"2\">Favored Terrain</th>\n</tr>\n<tr>\n<th>DC 40</th>\n<th>Favored Terrain Bonuses</th>\n</tr>\n</thead>\n<tbody>\n<tr>\n<td>Crit Failure</td>\n<td>No benefit</td>\n</tr>\n<tr>\n<td>Failure</td>\n<td>Gian +2 bonus on Stealth, Survival, Lore, Perception</td>\n</tr>\n<tr>\n<td>Success</td>\n<td>Gain +10ft base movement speed and ignore difficult terrain</td>\n</tr>\n<tr>\n<td>Crit Success</td>\n<td>Allies gain these same benefits</td>\n</tr>\n</tbody>\n</table>",
      "chat": "",
      "unidentified": ""
    },
    "tags": [
      [
        "Knowledge"
      ]
    ],
    "activation": {
      "cost": 1,
      "type": ""
    },
    "unchainedAction": {
      "activation": {
        "cost": 1,
        "type": ""
      }
    },
    "duration": {
      "value": null,
      "units": ""
    },
    "target": {
      "value": ""
    },
    "range": {
      "value": null,
      "units": "",
      "maxIncrements": 1,
      "minValue": null,
      "minUnits": ""
    },
    "uses": {
      "value": 0,
      "max": 0,
      "per": null,
      "autoDeductCharges": true,
      "autoDeductChargesCost": "1"
    },
    "measureTemplate": {
      "type": "",
      "size": "",
      "overrideColor": false,
      "customColor": "",
      "overrideTexture": false,
      "customTexture": ""
    },
    "attackName": "",
    "actionType": "",
    "attackBonus": "",
    "critConfirmBonus": "",
    "damage": {
      "parts": [],
      "critParts": [],
      "nonCritParts": []
    },
    "attackParts": [],
    "formulaicAttacks": {
      "count": {
        "formula": "",
        "value": null
      },
      "bonus": {
        "formula": ""
      },
      "label": null
    },
    "formula": "",
    "ability": {
      "attack": null,
      "damage": null,
      "damageMult": 1,
      "critRange": 20,
      "critMult": 2
    },
    "save": {
      "dc": 0,
      "type": "",
      "description": ""
    },
    "effectNotes": "",
    "attackNotes": [],
    "soundEffect": "",
    "changes": [],
    "changeFlags": {
      "loseDexToAC": false
    },
    "contextNotes": [],
    "links": {
      "children": [],
      "charges": []
    },
    "tag": "favorableTerrain",
    "useCustomTag": false,
    "armorProf": {
      "value": [],
      "custom": ""
    },
    "weaponProf": {
      "value": [],
      "custom": ""
    },
    "flags": {
      "boolean": [],
      "dictionary": []
    },
    "scriptCalls": [],
    "featType": "feat",
    "featTier": 2,
    "associations": {
      "classes": []
    },
    "showInQuickbar": false,
    "abilityType": "none",
    "crOffset": "",
    "disabled": false,
    "nonlethal": false,
    "conditionals": [],
    "identifiedName": "Favorable Terrain"
  },
  "effects": [],
  "sort": 0,
  "flags": {}
}