{
  "_id": "3v85ul6tGGBZbtBg",
  "name": "Know Your Enemy",
  "permission": {
    "default": 0
  },
  "type": "feat",
  "data": {
    "description": {
      "value": "\n                <i>The Adventurer takes an academic approach to fighting, studying a creature's strengths and weaknesses.</i>\n                <br />\n                <br />\n                \n                <p><b>Prerequisites</b></p>\n                <p> Intellect: 13</p>\n                \n            <br />\n                <p><b>Benefits</b></p>\n                <p><p class=\"stat-block-1\"> The Adventurer adds their Intellect Modifier to Lore Checks made to learn information about a creature, and has access to specific details about the creature. [[1d20+@skills.lor.mod]]</p></p>\n                \n            \n            <table><thead><tr><th colspan='2'>Know Your Enemy</th></tr><tr><th>DC 30</th><th>Information</th></tr></thead> <tbody><tr><td>Crit Failure</td><td>Nothing</td></tr><tr><td>Failure</td><td>All ACs</td></tr><tr><td>Success</td><td>Select 2 from options</td></tr><tr><td>Crit Success</td><td>Special Abilities</td></tr></tbody><tfoot><tr><th colspan='2'>Options</th></tr><tr><th colspan='2'>Attack Bonus, CMB/CMD, Damage Reductions, Resistances/Immunities, Max Health, Max Resolve, Weaknesses, Saves</th></tr></tfoot></table>",
      "chat": "",
      "unidentified": ""
    },
    "tags": [
      [
        "Knowledge"
      ]
    ],
    "activation": {
      "cost": 1,
      "type": "free"
    },
    "unchainedAction": {
      "activation": {
        "cost": 1,
        "type": ""
      }
    },
    "duration": {
      "value": null,
      "units": ""
    },
    "target": {
      "value": ""
    },
    "range": {
      "value": null,
      "units": "",
      "maxIncrements": 1,
      "minValue": null,
      "minUnits": "",
      "long": null
    },
    "uses": {
      "value": 0,
      "max": 0,
      "per": null,
      "maxFormula": "",
      "autoDeductCharges": true,
      "autoDeductChargesCost": "1"
    },
    "measureTemplate": {
      "type": "",
      "size": "0",
      "overrideColor": false,
      "customColor": "",
      "overrideTexture": false,
      "customTexture": ""
    },
    "attackName": "",
    "actionType": "",
    "attackBonus": "",
    "critConfirmBonus": "",
    "damage": {
      "parts": [],
      "critParts": [],
      "nonCritParts": []
    },
    "attackParts": [],
    "formulaicAttacks": {
      "count": {
        "formula": "",
        "value": null
      },
      "bonus": {
        "formula": ""
      },
      "label": null
    },
    "formula": "",
    "ability": {
      "attack": null,
      "damage": null,
      "damageMult": 1,
      "critRange": 20,
      "critMult": 2
    },
    "save": {
      "dc": 0,
      "type": "",
      "description": ""
    },
    "effectNotes": "",
    "attackNotes": [],
    "soundEffect": "",
    "changes": [
      {
        "_id": "t7xzgayi",
        "formula": "@abilities.int.mod",
        "operator": "add",
        "subTarget": "skill.lor",
        "modifier": "untyped",
        "priority": 0,
        "value": 0,
        "target": "skill"
      }
    ],
    "changeFlags": {
      "loseDexToAC": false,
      "noStr": false,
      "noDex": false,
      "oneInt": false,
      "oneWis": false,
      "oneCha": false
    },
    "contextNotes": [],
    "links": {
      "children": [],
      "charges": []
    },
    "tag": "knowYourEnemy",
    "useCustomTag": false,
    "armorProf": {
      "value": [],
      "custom": ""
    },
    "weaponProf": {
      "value": [],
      "custom": ""
    },
    "flags": {
      "boolean": [],
      "dictionary": []
    },
    "featType": "feat",
    "featTier": 0,
    "associations": {
      "classes": []
    },
    "showInQuickbar": false,
    "abilityType": "none",
    "crOffset": "",
    "disabled": false,
    "recharge": {
      "value": null,
      "charged": false,
      "_deprecated": true
    },
    "time": {
      "value": "",
      "_deprecated": true
    },
    "damageType": {
      "value": "",
      "_deprecated": true
    },
    "attack": {
      "parts": []
    }
  },
  "flags": {},
  "img": "systems/pf1/icons/feats/know-your-enemy.jpg",
  "effects": []
}