{
  "_id": "SUACufUXl12sUvnQ",
  "name": "Lore Devotion",
  "permission": {
    "default": 0
  },
  "type": "feat",
  "data": {
    "parentFeat": "knowYourEnemy",
    "description": {
      "value": "\n                <i>The Adventurer uses their previous experiences with similar creatures to adapt to the current fight.</i>\n                <br />\n                <br />\n                \n                <p><b>Prerequisites</b></p>\n                <p> Know Your Enemy, Lore: 1 rank</p>\n                \n            <br />\n                <p><b>Benefits</b></p>\n                <p><p class=\"stat-block-1\"> Whenever you fight a creature, you can make a Lore Check [[1d20+@skills.lor.mod]], as a free action, to gain an insight into how the creature acts. The results of this check determine the Adventurer's Insight Bonus to hit and damage against that type of creature. The Adventurer only makes one check against each type of creature and the Insight Bonus ends with the Encounter.</p></p>\n                \n<p><b>Special</b></p>\n                <p><p class=\"stat-block-1\"> The Adventurer may make a Lore Check in place of a Survival, Arcana, or Mysticism check when attempting to identify a new creature. </p></p>\n                \n            \n            <table><thead><tr><th colspan='2'>Lore Devotion</th></tr><tr><th>DC 40</th><th>Insight Bonus</th></tr></thead> <tbody><tr><td>Crit Failure</td><td>+1</td></tr><tr><td>Failure</td><td>+2</td></tr><tr><td>Success</td><td>+3</td></tr><tr><td>Crit Success</td><td>+4</td></tr></tbody></table>",
      "chat": "",
      "unidentified": ""
    },
    "tags": [
      [
        "Knowledge"
      ]
    ],
    "activation": {
      "cost": 1,
      "type": "free"
    },
    "unchainedAction": {
      "activation": {
        "cost": 1,
        "type": ""
      }
    },
    "duration": {
      "value": null,
      "units": ""
    },
    "target": {
      "value": ""
    },
    "range": {
      "value": null,
      "units": "",
      "maxIncrements": 1,
      "minValue": null,
      "minUnits": "",
      "long": null
    },
    "uses": {
      "value": 0,
      "max": 0,
      "per": null,
      "maxFormula": "",
      "autoDeductCharges": true,
      "autoDeductChargesCost": "1"
    },
    "measureTemplate": {
      "type": "",
      "size": "0",
      "overrideColor": false,
      "customColor": "",
      "overrideTexture": false,
      "customTexture": ""
    },
    "attackName": "",
    "actionType": "",
    "attackBonus": "",
    "critConfirmBonus": "",
    "damage": {
      "parts": [],
      "critParts": [],
      "nonCritParts": []
    },
    "attackParts": [],
    "formulaicAttacks": {
      "count": {
        "formula": "",
        "value": null
      },
      "bonus": {
        "formula": ""
      },
      "label": null
    },
    "formula": "",
    "ability": {
      "attack": null,
      "damage": null,
      "damageMult": 1,
      "critRange": 20,
      "critMult": 2
    },
    "save": {
      "dc": 0,
      "type": "",
      "description": ""
    },
    "effectNotes": "",
    "attackNotes": [],
    "soundEffect": "",
    "changes": [],
    "changeFlags": {
      "loseDexToAC": false,
      "noStr": false,
      "noDex": false,
      "oneInt": false,
      "oneWis": false,
      "oneCha": false
    },
    "contextNotes": [],
    "links": {
      "children": [],
      "charges": []
    },
    "tag": "loreDevotion",
    "useCustomTag": false,
    "armorProf": {
      "value": [],
      "custom": ""
    },
    "weaponProf": {
      "value": [],
      "custom": ""
    },
    "flags": {
      "boolean": [],
      "dictionary": []
    },
    "featType": "feat",
    "featTier": 1,
    "associations": {
      "classes": []
    },
    "showInQuickbar": false,
    "abilityType": "none",
    "crOffset": "",
    "disabled": false,
    "recharge": {
      "value": null,
      "charged": false,
      "_deprecated": true
    },
    "time": {
      "value": "",
      "_deprecated": true
    },
    "damageType": {
      "value": "",
      "_deprecated": true
    },
    "attack": {
      "parts": []
    }
  },
  "flags": {},
  "img": "systems/pf1/icons/feats/know-your-enemy.jpg",
  "effects": []
}