{
  "name": "Maneuver Training",
  "type": "feat",
  "img": "systems/pf1/icons/feats/monastic-tradition.jpg",
  "data": {
    "parentFeat": "monasticTradition",
    "description": {
      "value": "<p><em>The Adventurer trains specifically in repositioning or hindering a foe.</em><br /><br /></p>\n<p><strong>Prerequisites</strong></p>\n<p>Monastic Tradition, Athletics: 1 rank</p>\n<p>&nbsp;</p>\n<p><strong>Benefits</strong></p>\n<p class=\"stat-block-1\">The Adventurer's CMB is calculated using their level instead of their BAB.</p>",
      "chat": "",
      "unidentified": ""
    },
    "tags": [
      [
        "Monastic"
      ]
    ],
    "activation": {
      "cost": 1,
      "type": ""
    },
    "unchainedAction": {
      "activation": {
        "cost": 1,
        "type": ""
      }
    },
    "duration": {
      "value": null,
      "units": ""
    },
    "target": {
      "value": ""
    },
    "range": {
      "value": null,
      "units": "",
      "maxIncrements": 1,
      "minValue": null,
      "minUnits": "",
      "long": null
    },
    "uses": {
      "value": 0,
      "max": 0,
      "per": null,
      "autoDeductCharges": true,
      "autoDeductChargesCost": "1"
    },
    "measureTemplate": {
      "type": "",
      "size": "0",
      "overrideColor": false,
      "customColor": "",
      "overrideTexture": false,
      "customTexture": ""
    },
    "attackName": "",
    "actionType": "",
    "attackBonus": "",
    "critConfirmBonus": "",
    "damage": {
      "parts": [],
      "critParts": [],
      "nonCritParts": []
    },
    "attackParts": [],
    "formulaicAttacks": {
      "count": {
        "formula": "",
        "value": null
      },
      "bonus": {
        "formula": ""
      },
      "label": null
    },
    "formula": "",
    "ability": {
      "attack": null,
      "damage": null,
      "damageMult": 1,
      "critRange": 20,
      "critMult": 2
    },
    "save": {
      "dc": 0,
      "type": "",
      "description": ""
    },
    "effectNotes": "",
    "attackNotes": [],
    "soundEffect": "",
    "changes": [
      {
        "_id": "ghbo4ec3",
        "formula": "@details.level.value",
        "operator": "add",
        "subTarget": "cmb",
        "modifier": "untyped",
        "priority": 0,
        "value": 0
      },
      {
        "_id": "j1v9p8se",
        "formula": "-(@attributes.bab.total)",
        "operator": "add",
        "subTarget": "cmb",
        "modifier": "penalty",
        "priority": 0,
        "value": 0
      }
    ],
    "changeFlags": {
      "loseDexToAC": false,
      "noStr": false,
      "noDex": false,
      "oneInt": false,
      "oneWis": false,
      "oneCha": false
    },
    "contextNotes": [],
    "links": {
      "children": [],
      "charges": []
    },
    "tag": "maneuverTraining",
    "useCustomTag": false,
    "armorProf": {
      "value": [],
      "custom": ""
    },
    "weaponProf": {
      "value": [],
      "custom": ""
    },
    "flags": {
      "boolean": [],
      "dictionary": []
    },
    "scriptCalls": [],
    "featType": "feat",
    "featTier": 1,
    "associations": {
      "classes": []
    },
    "showInQuickbar": false,
    "abilityType": "none",
    "crOffset": "",
    "disabled": false,
    "recharge": {
      "value": null,
      "charged": false,
      "_deprecated": true
    },
    "time": {
      "value": "",
      "_deprecated": true
    },
    "damageType": {
      "value": "",
      "_deprecated": true
    },
    "attack": {
      "parts": []
    },
    "nonlethal": false,
    "conditionals": [],
    "identifiedName": "Maneuver Training"
  },
  "effects": [],
  "sort": 0,
  "flags": {}
}