{
  "name": "Tinker",
  "type": "feat",
  "img": "systems/pf1/icons/feats/potion.jpg",
  "data": {
    "parentFeat": "improvedCreations",
    "description": {
      "value": "<p><em>The Adventurer learns to craft tiny clockwork alarms.</em><br /><br /></p>\n<p><strong>Prerequisites</strong></p>\n<p>Improved Creations, Legerdemain: 1 rank</p>\n<p>&nbsp;</p>\n<p><strong>Benefits</strong></p>\n<p class=\"stat-block-1\">These alarms have a thin barely perceptible string (DC 15 Perception) that, when stepped on, triggers the alarm. The alarm produces a loud ringing noise (DC 2+1/50ft) when triggered.</p>\n<p class=\"stat-block-1\">Setting up a trap is done in two parts. First, as a swift action, you anchor one end of the tripwire. Second, as a standard action, you anchor the mechanism at the other end of the line and arm it. Trip wires have a maximum length of 30ft.</p>\n<p class=\"stat-block-1\">&nbsp;</p>\n<p class=\"stat-block-1\"><strong>Special</strong></p>\n<p class=\"stat-block-1\">Over a short rest the Adventurer may choose to oil a weapon. Weapons oiled in this way are considered magic for the purpose of overcoming DR and the oil lasts until the next time the Adventurer rests.&nbsp;&nbsp;</p>",
      "chat": "",
      "unidentified": ""
    },
    "tags": [
      [
        "Artificer"
      ]
    ],
    "activation": {
      "cost": 1,
      "type": "standard"
    },
    "unchainedAction": {
      "activation": {
        "cost": 2,
        "type": "action"
      }
    },
    "duration": {
      "value": null,
      "units": ""
    },
    "target": {
      "value": ""
    },
    "range": {
      "value": null,
      "units": "",
      "maxIncrements": 1,
      "minValue": null,
      "minUnits": "",
      "long": null
    },
    "uses": {
      "value": 0,
      "max": 0,
      "per": "longRest",
      "autoDeductCharges": true,
      "autoDeductChargesCost": "1",
      "maxFormula": "@attributes.feats.artificerCreations"
    },
    "measureTemplate": {
      "type": "",
      "size": "0",
      "overrideColor": false,
      "customColor": "",
      "overrideTexture": false,
      "customTexture": ""
    },
    "attackName": "",
    "actionType": "",
    "attackBonus": "",
    "critConfirmBonus": "",
    "damage": {
      "parts": [],
      "critParts": [],
      "nonCritParts": []
    },
    "attackParts": [],
    "formulaicAttacks": {
      "count": {
        "formula": "",
        "value": null
      },
      "bonus": {
        "formula": ""
      },
      "label": null
    },
    "formula": "",
    "ability": {
      "attack": null,
      "damage": "",
      "damageMult": 1,
      "critRange": 20,
      "critMult": 2
    },
    "save": {
      "dc": "0",
      "type": "",
      "description": ""
    },
    "effectNotes": "",
    "attackNotes": [],
    "soundEffect": "",
    "changes": [],
    "changeFlags": {
      "loseDexToAC": false,
      "noStr": false,
      "noDex": false,
      "oneInt": false,
      "oneWis": false,
      "oneCha": false
    },
    "contextNotes": [],
    "links": {
      "children": [],
      "charges": []
    },
    "tag": "tinker",
    "useCustomTag": false,
    "armorProf": {
      "value": [],
      "custom": ""
    },
    "weaponProf": {
      "value": [],
      "custom": ""
    },
    "flags": {
      "boolean": [],
      "dictionary": []
    },
    "scriptCalls": [],
    "featType": "feat",
    "featTier": 2,
    "associations": {
      "classes": []
    },
    "showInQuickbar": false,
    "abilityType": "none",
    "crOffset": "",
    "disabled": false,
    "recharge": {
      "value": null,
      "charged": false,
      "_deprecated": true
    },
    "time": {
      "value": "",
      "_deprecated": true
    },
    "damageType": {
      "value": "",
      "_deprecated": true
    },
    "attack": {
      "parts": []
    },
    "nonlethal": false,
    "conditionals": [],
    "identifiedName": "Tinker"
  },
  "effects": [],
  "sort": 0,
  "flags": {}
}