{
  "_id": "R58RSCpPHbpmtQhU",
  "name": "Reincarnation",
  "img": "icons/magic/nature/leaf-juggle-humanoid-green.webp",
  "description": "Roll table for the reincarnation spell.",
  "results": [
    {
      "_id": "UEvoLBz9gxib3GQD",
      "flags": {},
      "type": 0,
      "text": "Bugbear",
      "img": "icons/svg/d20-black.svg",
      "resultId": null,
      "weight": 1,
      "range": [
        1,
        1
      ],
      "drawn": false,
      "collection": null,
      "rangeL": 1,
      "rangeH": 1
    },
    {
      "_id": "I2nfbgjHKYFFiDDg",
      "flags": {},
      "type": 0,
      "text": "Dwarf",
      "img": "icons/svg/d20-black.svg",
      "resultId": null,
      "weight": 1,
      "range": [
        2,
        13
      ],
      "drawn": false,
      "collection": null,
      "rangeL": 2,
      "rangeH": 13
    },
    {
      "_id": "vwnUE0AhVLDvizah",
      "flags": {},
      "type": 0,
      "text": "Elf",
      "img": "icons/svg/d20-black.svg",
      "resultId": null,
      "weight": 1,
      "range": [
        14,
        25
      ],
      "drawn": false,
      "collection": null,
      "rangeL": 14,
      "rangeH": 25
    },
    {
      "_id": "oEqL1iGgAoXxuRQg",
      "flags": {},
      "type": 0,
      "text": "Gnoll",
      "img": "icons/svg/d20-black.svg",
      "resultId": null,
      "weight": 1,
      "range": [
        26,
        26
      ],
      "drawn": false,
      "collection": null,
      "rangeL": 26,
      "rangeH": 26
    },
    {
      "_id": "NksS9k7ywYtlzMTU",
      "flags": {},
      "type": 0,
      "text": "Gnome",
      "img": "icons/svg/d20-black.svg",
      "resultId": null,
      "weight": 1,
      "range": [
        27,
        38
      ],
      "drawn": false,
      "collection": null,
      "rangeL": 27,
      "rangeH": 38
    },
    {
      "_id": "1AXZghQFoaeK64EG",
      "flags": {},
      "type": 0,
      "text": "Goblin",
      "img": "icons/svg/d20-black.svg",
      "resultId": null,
      "weight": 1,
      "range": [
        39,
        42
      ],
      "drawn": false,
      "collection": null,
      "rangeL": 39,
      "rangeH": 42
    },
    {
      "_id": "dvucUBfNfWeotzsm",
      "flags": {},
      "type": 0,
      "text": "Half-elf",
      "img": "icons/svg/d20-black.svg",
      "resultId": null,
      "weight": 1,
      "range": [
        43,
        52
      ],
      "drawn": false,
      "collection": null,
      "rangeL": 43,
      "rangeH": 52
    },
    {
      "_id": "nE1cpWtiYY4fuzN5",
      "flags": {},
      "type": 0,
      "text": "Half-orc",
      "img": "icons/svg/d20-black.svg",
      "resultId": null,
      "weight": 1,
      "range": [
        53,
        62
      ],
      "drawn": false,
      "collection": null,
      "rangeL": 53,
      "rangeH": 62
    },
    {
      "_id": "rhL25JZNYBs5V6cA",
      "flags": {},
      "type": 0,
      "text": "Halfling",
      "img": "icons/svg/d20-black.svg",
      "resultId": null,
      "weight": 1,
      "range": [
        63,
        74
      ],
      "drawn": false,
      "collection": null,
      "rangeL": 63,
      "rangeH": 74
    },
    {
      "_id": "S89LgRIxwDlTPuNT",
      "flags": {},
      "type": 0,
      "text": "Human",
      "img": "icons/svg/d20-black.svg",
      "resultId": null,
      "weight": 1,
      "range": [
        75,
        89
      ],
      "drawn": false,
      "collection": null,
      "rangeL": 75,
      "rangeH": 89
    },
    {
      "_id": "t3TadBWvUTFv5ROH",
      "flags": {},
      "type": 0,
      "text": "Kobold",
      "img": "icons/svg/d20-black.svg",
      "resultId": null,
      "weight": 1,
      "range": [
        90,
        93
      ],
      "drawn": false,
      "collection": null,
      "rangeL": 90,
      "rangeH": 93
    },
    {
      "_id": "0IhpvBL5r0z6B6Xz",
      "flags": {},
      "type": 0,
      "text": "Lizardfolk",
      "img": "icons/svg/d20-black.svg",
      "resultId": null,
      "weight": 1,
      "range": [
        94,
        94
      ],
      "drawn": false,
      "collection": null,
      "rangeL": 94,
      "rangeH": 94
    },
    {
      "_id": "7AHoO2xsqLoP7Spw",
      "flags": {},
      "type": 0,
      "text": "Orc",
      "img": "icons/svg/d20-black.svg",
      "resultId": null,
      "weight": 1,
      "range": [
        95,
        98
      ],
      "drawn": false,
      "collection": null,
      "rangeL": 95,
      "rangeH": 98
    },
    {
      "_id": "u9tIPtIMJ9WsTnyS",
      "flags": {},
      "type": 0,
      "text": "Troglodyte",
      "img": "icons/svg/d20-black.svg",
      "resultId": null,
      "weight": 1,
      "range": [
        99,
        99
      ],
      "drawn": false,
      "collection": null,
      "rangeL": 99,
      "rangeH": 99
    },
    {
      "_id": "Ty72CDy9Ma2dXWia",
      "flags": {},
      "type": 0,
      "text": "Other (GM's choice)",
      "img": "icons/svg/d20-black.svg",
      "resultId": null,
      "weight": 1,
      "range": [
        100,
        100
      ],
      "drawn": false,
      "collection": null,
      "rangeL": 100,
      "rangeH": 100
    }
  ],
  "formula": "1d100",
  "replacement": true,
  "displayRoll": true,
  "folder": null,
  "sort": 100001,
  "permission": {
    "default": 0
  },
  "flags": {}
}