{
  "name": "Rage (Dealt)",
  "type": "attack",
  "img": "systems/pf1/icons/feats/rage.jpg",
  "data": {
    "description": {
      "value": "",
      "chat": "",
      "unidentified": ""
    },
    "tags": [],
    "activation": {
      "cost": 1,
      "type": ""
    },
    "unchainedAction": {
      "activation": {
        "cost": 1,
        "type": ""
      }
    },
    "duration": {
      "value": null,
      "units": ""
    },
    "target": {
      "value": ""
    },
    "range": {
      "value": null,
      "units": "",
      "maxIncrements": 1,
      "minValue": null,
      "minUnits": ""
    },
    "uses": {
      "value": 0,
      "max": 0,
      "per": "",
      "autoDeductCharges": false,
      "autoDeductChargesCost": "1"
    },
    "measureTemplate": {
      "type": "",
      "size": "",
      "overrideColor": false,
      "customColor": "",
      "overrideTexture": false,
      "customTexture": ""
    },
    "attackName": "",
    "actionType": "other",
    "attackBonus": "",
    "critConfirmBonus": "",
    "damage": {
      "parts": [
        [
          "1d(@attributes.feats.rage)",
          "Rage"
        ]
      ],
      "critParts": [],
      "nonCritParts": []
    },
    "attackParts": [],
    "formulaicAttacks": {
      "count": {
        "formula": "",
        "value": null
      },
      "bonus": {
        "formula": ""
      },
      "label": null
    },
    "formula": "",
    "ability": {
      "attack": null,
      "damage": "",
      "damageMult": 1,
      "critRange": 20,
      "critMult": 2
    },
    "save": {
      "dc": "0",
      "type": "",
      "description": ""
    },
    "effectNotes": "",
    "attackNotes": [],
    "soundEffect": "",
    "links": {
      "children": [],
      "charges": []
    },
    "tag": "",
    "useCustomTag": false,
    "flags": {
      "boolean": [],
      "dictionary": []
    },
    "scriptCalls": [],
    "attackType": "ability",
    "masterwork": false,
    "traits": {
      "brc": false,
      "cru": false,
      "cur": false,
      "dea": false,
      "dis": false,
      "dbl": false,
      "fin": false,
      "foc": false,
      "nnl": false,
      "pry": false,
      "prj": false,
      "rch": false,
      "rpd": false,
      "thr": false,
      "trp": false,
      "vrs": false
    },
    "enh": null,
    "proficient": true,
    "primaryAttack": true,
    "showInQuickbar": true,
    "broken": false,
    "held": "normal",
    "conditionals": [],
    "identifiedName": "Rage (Dealt)"
  },
  "effects": [],
  "sort": 0,
  "flags": {}
}