{
  "name": "Rage",
  "type": "buff",
  "img": "systems/pf1/icons/feats/rage.jpg",
  "data": {
    "description": {
      "value": "<p><strong>Benefits</strong></p>\n<p class=\"stat-block-1\">The Adventurer enters a Rage, gaining a +1 bonus to hit and a +1d6 bonus to weapon damage rolls but suffer a -1 penalty to AC and suffer an additional +1d6 damage when successfully hit. Entering a Rage is a move action and costs 2pts of Resolve. The Rage ends if the Adventurer has not attacked or been attacked since their last turn, unless the Adventurer pays 2 Resolve. Stealth checks cannot be made while Raging.</p>",
      "chat": "",
      "unidentified": ""
    },
    "tags": [],
    "changes": [
      {
        "_id": "olkt4jpc",
        "formula": "1d(@attributes.feats.rage)",
        "operator": "add",
        "subTarget": "mdamage",
        "modifier": "enh",
        "priority": 0,
        "value": 0
      },
      {
        "_id": "cjn7273y",
        "formula": "1",
        "operator": "add",
        "subTarget": "mattack",
        "modifier": "enh",
        "priority": 0,
        "value": 0
      },
      {
        "_id": "81qurnyy",
        "formula": "-1",
        "operator": "add",
        "subTarget": "ac",
        "modifier": "untyped",
        "priority": 0,
        "value": 0
      }
    ],
    "changeFlags": {
      "loseDexToAC": false
    },
    "contextNotes": [],
    "links": {
      "children": []
    },
    "tag": "",
    "useCustomTag": false,
    "flags": {
      "boolean": [],
      "dictionary": []
    },
    "scriptCalls": [],
    "buffType": "temp",
    "active": false,
    "level": null,
    "duration": {
      "value": "",
      "units": "round"
    },
    "hideFromToken": false,
    "conditionals": [],
    "identifiedName": "Rage"
  },
  "effects": [],
  "flags": {}
}