{
  "name": "Shield, Kite",
  "type": "weapon",
  "img": "systems/pf1/icons/items/armor/shield-kite.png",
  "data": {
    "description": {
      "value": "<p><span style=\"color: #191813; font-size: 13px;\">When mounted, increase the shield bonus to AC by 1.</span></p>",
      "chat": "",
      "unidentified": ""
    },
    "tags": [],
    "quantity": 1,
    "weight": "0",
    "price": 0,
    "identified": true,
    "hp": {
      "max": 10,
      "value": 10
    },
    "hardness": 5,
    "carried": true,
    "unidentified": {
      "price": 0,
      "name": ""
    },
    "identifiedName": "Shield, Kite",
    "cl": 0,
    "aura": {
      "custom": false,
      "school": "",
      "plane": ""
    },
    "changes": [],
    "changeFlags": {
      "loseDexToAC": false
    },
    "contextNotes": [],
    "links": {
      "children": []
    },
    "tag": "",
    "useCustomTag": false,
    "flags": {
      "boolean": [],
      "dictionary": []
    },
    "scriptCalls": [],
    "equipped": true,
    "masterwork": false,
    "weaponType": "melee",
    "weaponSubtype": "1h",
    "traits": {
      "brc": false,
      "cru": false,
      "cur": false,
      "dea": false,
      "dis": false,
      "dbl": false,
      "fin": false,
      "foc": false,
      "nnl": false,
      "pry": false,
      "prj": false,
      "rch": false,
      "rpd": false,
      "thr": false,
      "trp": false,
      "vrs": false
    },
    "enh": null,
    "weaponData": {
      "double": {
        "damageRoll": "",
        "damageType": "",
        "critRange": 20,
        "critMult": 2
      },
      "damageRoll": "1d4",
      "damageType": "B",
      "critRange": 20,
      "critMult": 2,
      "range": null,
      "attackFormula": "",
      "damageFormula": "",
      "maxRangeIncrements": 1
    },
    "broken": false,
    "bonus": {
      "value": 0,
      "_deprecated": true
    },
    "damageType": {
      "value": "",
      "_deprecated": true
    },
    "damage2": {
      "value": "",
      "_deprecated": true
    },
    "damage2Type": {
      "value": "",
      "_deprecated": true
    },
    "conditionals": []
  },
  "effects": [],
  "sort": 0,
  "flags": {}
}