{
  "_id": "42M7kFLkyccrj1uf",
  "name": "Shuriken",
  "permission": {
    "default": 0
  },
  "type": "weapon",
  "data": {
    "description": {
      "value": "<p><em>A shuriken is a small piece of metal with sharpened edges, designed for throwing.</em></p>",
      "chat": "",
      "unidentified": ""
    },
    "tags": [],
    "quantity": 1,
    "weight": "T(20)",
    "price": 0.2,
    "identified": true,
    "hp": {
      "max": 1,
      "value": 1
    },
    "hardness": 10,
    "carried": true,
    "unidentified": {
      "price": 0.2,
      "name": ""
    },
    "identifiedName": "Shuriken",
    "cl": null,
    "aura": {
      "custom": false,
      "school": ""
    },
    "changes": [],
    "changeFlags": {
      "loseDexToAC": false,
      "noEncumbrance": false,
      "noStr": false,
      "noDex": false,
      "oneInt": false,
      "oneWis": false,
      "oneCha": false
    },
    "contextNotes": [],
    "links": {
      "children": []
    },
    "tag": "",
    "useCustomTag": false,
    "flags": {
      "boolean": [],
      "dictionary": []
    },
    "equipped": true,
    "masterwork": false,
    "weaponType": "ranged",
    "weaponSubtype": "light",
    "traits": {
      "brc": false,
      "cru": false,
      "cur": false,
      "dea": false,
      "dis": false,
      "dbl": false,
      "fin": false,
      "foc": false,
      "nnl": false,
      "pry": false,
      "prj": false,
      "rch": false,
      "rpd": true,
      "thr": true,
      "trp": false,
      "vrs": false
    },
    "enh": null,
    "weaponData": {
      "double": {
        "damageRoll": "",
        "damageType": "",
        "critRange": 20,
        "critMult": 2
      },
      "damageRoll": "1d3",
      "damageType": "S",
      "critRange": 20,
      "critMult": 2,
      "range": 20,
      "attackFormula": "",
      "damageFormula": "",
      "maxRangeIncrements": 5
    },
    "broken": false,
    "bonus": {
      "value": 0,
      "_deprecated": true
    },
    "damageType": {
      "value": "",
      "_deprecated": true
    },
    "damage2": {
      "value": "",
      "_deprecated": true
    },
    "damage2Type": {
      "value": "",
      "_deprecated": true
    },
    "damage": {
      "parts": [],
      "critParts": [],
      "nonCritParts": []
    },
    "uses": {
      "value": 0,
      "max": 0
    },
    "conditionals": []
  },
  "flags": {},
  "img": "systems/pf1/icons/items/weapons/shuriken.png",
  "effects": []
}