{
  "_id": "gAs85NM90mIR4O4Z",
  "name": "Throwing Axe",
  "permission": {
    "default": 0
  },
  "type": "weapon",
  "data": {
    "description": {
      "value": "<p>This one-handed axe is small and perfectly balanced for throwing, and can be used as a melee weapon. Throwing axes have a variety of alternative names, including franciscas, tomahawks, and more. The axe is normally gripped by the haft and thrown overhand, making one complete rotation in the air before biting into the target with the axe head.</p>",
      "chat": "",
      "unidentified": ""
    },
    "tags": [],
    "quantity": 1,
    "weight": "Light",
    "price": 4,
    "identified": true,
    "hp": {
      "max": 2,
      "value": 2
    },
    "broken": false,
    "hardness": 10,
    "carried": true,
    "unidentified": {
      "price": 0,
      "name": ""
    },
    "identifiedName": "Throwing Axe",
    "cl": 0,
    "aura": {
      "custom": false,
      "school": ""
    },
    "changes": [],
    "changeFlags": {
      "loseDexToAC": false,
      "noStr": false,
      "noDex": false,
      "oneInt": false,
      "oneWis": false,
      "oneCha": false
    },
    "contextNotes": [],
    "links": {
      "children": []
    },
    "tag": "throwingAxe",
    "useCustomTag": false,
    "flags": {
      "boolean": [],
      "dictionary": []
    },
    "equipped": true,
    "masterwork": false,
    "weaponType": "melee",
    "weaponSubtype": "light",
    "traits": {
      "brc": false,
      "cru": false,
      "cur": false,
      "dea": false,
      "dis": false,
      "dbl": false,
      "fin": false,
      "foc": false,
      "nnl": false,
      "pry": false,
      "prj": false,
      "rch": false,
      "rpd": true,
      "thr": true,
      "trp": false,
      "vrs": false
    },
    "enh": null,
    "weaponData": {
      "double": {
        "damageRoll": "",
        "damageType": "",
        "critRange": 20,
        "critMult": 2
      },
      "damageRoll": "1d4",
      "damageType": "S",
      "critRange": 20,
      "critMult": 2,
      "range": 10,
      "attackFormula": "",
      "damageFormula": "",
      "maxRangeIncrements": 5
    },
    "broken": false,
    "bonus": {
      "value": 0,
      "_deprecated": true
    },
    "damageType": {
      "value": "",
      "_deprecated": true
    },
    "damage2": {
      "value": "",
      "_deprecated": true
    },
    "damage2Type": {
      "value": "",
      "_deprecated": true
    },
    "damage": {
      "parts": []
    },
    "uses": {
      "value": 0,
      "max": 0
    }
  },
  "flags": {},
  "img": "systems/pf1/icons/items/weapons/axe-throwing.png",
  "effects": []
}