{
  "_id": "2mw29eyL5mzZgKqR",
  "name": "Trident",
  "permission": {
    "default": 0
  },
  "type": "weapon",
  "data": {
    "description": {
      "value": "<p><em>A trident has three metal prongs at the end of a 4-foot-long shaft.</em></p>",
      "chat": "",
      "unidentified": ""
    },
    "tags": [],
    "quantity": 1,
    "weight": 2,
    "price": 15,
    "identified": true,
    "hp": {
      "max": 5,
      "value": 5
    },
    "hardness": 10,
    "carried": true,
    "unidentified": {
      "price": 0,
      "name": ""
    },
    "identifiedName": "Trident",
    "cl": 0,
    "aura": {
      "custom": false,
      "school": ""
    },
    "changes": [],
    "changeFlags": {
      "loseDexToAC": false,
      "noStr": false,
      "noDex": false,
      "oneInt": false,
      "oneWis": false,
      "oneCha": false
    },
    "contextNotes": [],
    "links": {
      "children": []
    },
    "tag": "trident",
    "useCustomTag": false,
    "flags": {
      "boolean": [],
      "dictionary": []
    },
    "equipped": true,
    "masterwork": false,
    "weaponType": "melee",
    "weaponSubtype": "2h",
    "traits": {
      "brc": true,
      "cru": false,
      "cur": false,
      "dea": false,
      "dis": true,
      "dbl": false,
      "fin": false,
      "foc": false,
      "nnl": false,
      "pry": true,
      "prj": false,
      "rch": false,
      "rpd": false,
      "thr": false,
      "trp": false,
      "vrs": false
    },
    "enh": null,
    "weaponData": {
      "double": {
        "damageRoll": "",
        "damageType": "",
        "critRange": 20,
        "critMult": 2
      },
      "damageRoll": "3d3",
      "damageType": "P",
      "critRange": 20,
      "critMult": 3,
      "range": null,
      "attackFormula": "",
      "damageFormula": "",
      "maxRangeIncrements": 1
    },
    "broken": false,
    "bonus": {
      "value": 0,
      "_deprecated": true
    },
    "damageType": {
      "value": "",
      "_deprecated": true
    },
    "damage2": {
      "value": "",
      "_deprecated": true
    },
    "damage2Type": {
      "value": "",
      "_deprecated": true
    },
    "damage": {
      "parts": []
    },
    "uses": {
      "value": 0,
      "max": 0
    }
  },
  "flags": {},
  "img": "systems/pf1/icons/items/weapons/trident.PNG",
  "effects": []
}