{
  "_id": "YVi1oyNxLKmocWjI",
  "name": "Unarmed Strike",
  "permission": {
    "default": 0
  },
  "type": "weapon",
  "data": {
    "description": {
      "value": "<p>An unarmed strike is always considered a light weapon. Unarmed strikes do not count as natural weapons. The damage from an unarmed strike is considered weapon damage for the purposes of effects that give you a bonus on weapon damage rolls.</p>",
      "chat": "",
      "unidentified": ""
    },
    "tags": [],
    "quantity": 1,
    "weight": 0,
    "price": 0,
    "identified": true,
    "hp": {
      "max": 0,
      "value": 0
    },
    "hardness": 0,
    "carried": true,
    "unidentified": {
      "price": 0,
      "name": ""
    },
    "identifiedName": "Unarmed Strike",
    "cl": 0,
    "aura": {
      "custom": false,
      "school": ""
    },
    "changes": [],
    "changeFlags": {
      "loseDexToAC": false,
      "noStr": false,
      "noDex": false,
      "oneInt": false,
      "oneWis": false,
      "oneCha": false
    },
    "contextNotes": [],
    "links": {
      "children": []
    },
    "tag": "unarmedStrike",
    "useCustomTag": false,
    "flags": {
      "boolean": [],
      "dictionary": []
    },
    "equipped": true,
    "masterwork": false,
    "weaponType": "melee",
    "weaponSubtype": "light",
    "traits": {
      "brc": false,
      "cru": false,
      "cur": false,
      "dea": false,
      "dis": false,
      "dbl": false,
      "fin": false,
      "foc": false,
      "nnl": true,
      "pry": false,
      "prj": false,
      "rch": false,
      "rpd": false,
      "thr": false,
      "trp": false,
      "vrs": false
    },
    "enh": null,
    "weaponData": {
      "double": {
        "damageRoll": "",
        "damageType": "",
        "critRange": 20,
        "critMult": 2
      },
      "damageRoll": "(floor(@attributes.feats.monastic / 4) + 1)d((min(@attributes.feats.monastic + 1, 2) * 3) + (max(@attributes.feats.monastic - 1, 0) * 2)  - (floor(@attributes.feats.monastic / 4) * 6))",
      "damageType": "B",
      "critRange": 20,
      "critMult": 2,
      "range": null,
      "attackFormula": "",
      "damageFormula": "",
      "maxRangeIncrements": 1
    },
    "broken": false,
    "bonus": {
      "value": 0,
      "_deprecated": true
    },
    "damageType": {
      "value": "",
      "_deprecated": true
    },
    "damage2": {
      "value": "",
      "_deprecated": true
    },
    "damage2Type": {
      "value": "",
      "_deprecated": true
    },
    "damage": {
      "parts": []
    },
    "uses": {
      "value": 0,
      "max": 0
    }
  },
  "flags": {},
  "img": "systems/pf1/icons/items/weapons/unarmed.PNG",
  "effects": []
}