{
  "_id": "eIxzoEGDNZXWgnKk",
  "name": "Backpack, Tier 2",
  "permission": {
    "default": 0
  },
  "type": "container",
  "data": {
    "description": {
      "value": "<p>This leather knapsack has one large pocket that closes with a buckled strap that can hold 12 bulk. The backpack features two smaller pockets on the sides, each of which can hold 1 bulk. Backpacks offer 75% bulk reduction for items stored inside them while worn.</p>",
      "chat": "",
      "unidentified": ""
    },
    "tags": [],
    "quantity": 1,
    "weight": 3,
    "price": 200,
    "maxCarryingWeight": 14,
    "identified": true,
    "hp": {
      "max": 15,
      "value": 15
    },
    "hardness": 0,
    "carried": true,
    "unidentified": {
      "price": 200,
      "name": "",
      "basePrice": 200
    },
    "identifiedName": "Backpack, Tier 2",
    "cl": 0,
    "aura": {
      "custom": false,
      "school": ""
    },
    "inventoryItems": [],
    "maxWeight": null,
    "weightReduction": 75,
    "baseWeight": 3,
    "sellMultiplier": 0.5,
    "currency": {
      "pp": 0,
      "gp": 0,
      "sp": 0,
      "cp": 0
    },
    "flags": {
      "boolean": [],
      "dictionary": []
    },
    "basePrice": 200,
    "damage": {
      "parts": [],
      "critParts": [],
      "nonCritParts": []
    }
  },
  "flags": {},
  "img": "systems/pf1/icons/items/inventory/backpack.jpg",
  "effects": []
}