{
  "_id": "odkdxsxfhzpdrwed",
  "name": "Bandolier",
  "permission": {
    "default": 0
  },
  "type": "container",
  "data": {
    "description": {
      "value": "<p>This leather belt is worn over one shoulder and runs diagonally across the chest and back. It has small loops or pouches for holding eight objects the size of a flask or small dagger. Only two bandoliers can be worn at the same time without impeding mobility. Items stored on a bandolier cannot have a bulk greater than Light but offer 100% bulk reduction. Artificers will usually craft their own for holding their creations.</p>",
      "chat": "",
      "unidentified": ""
    },
    "tags": [],
    "quantity": 1,
    "weight": "light",
    "price": 2,
    "maxCarryingWeight": 2,
    "identified": true,
    "hp": {
      "max": 10,
      "value": 10
    },
    "hardness": 0,
    "carried": true,
    "unidentified": {
      "price": 2,
      "name": "Bandolier"
    },
    "identifiedName": "Bandolier",
    "cl": 0,
    "aura": {
      "custom": false,
      "school": ""
    },
    "inventoryItems": [],
    "maxWeight": null,
    "weightReduction": 100,
    "baseWeight": "light",
    "sellMultiplier": 0.5,
    "currency": {
      "pp": 0,
      "gp": 0,
      "sp": 0,
      "cp": 0
    },
    "flags": {
      "boolean": [],
      "dictionary": []
    },
    "basePrice": 2,
    "damage": {
      "parts": [],
      "critParts": [],
      "nonCritParts": []
    }
  },
  "flags": {},
  "img": "systems/pf1/icons/items/inventory/carving-knot.jpg",
  "effects": []
}