{
  "_id": "ygmrcisvftnvjyob",
  "name": "Flint And Steel",
  "permission": {
    "default": 0
  },
  "type": "loot",
  "data": {
    "description": {
      "value": "<p>Lighting a torch with flint and steel is a full-round action, and lighting any other fire with them takes at least that long.</p>",
      "chat": "",
      "unidentified": ""
    },
    "tags": [],
    "quantity": 1,
    "weight": "Light",
    "price": 1,
    "identified": true,
    "hp": {
      "max": 10,
      "value": 10
    },
    "hardness": 0,
    "carried": true,
    "unidentified": {
      "price": 0,
      "name": ""
    },
    "identifiedName": "Flint And Steel",
    "cl": 0,
    "aura": {
      "custom": false,
      "school": ""
    },
    "changes": [],
    "changeFlags": {
      "loseDexToAC": false,
      "noEncumbrance": false,
      "noStr": false,
      "noDex": false,
      "oneInt": false,
      "oneWis": false,
      "oneCha": false
    },
    "contextNotes": [],
    "links": {
      "children": []
    },
    "tag": "",
    "useCustomTag": false,
    "flags": {
      "boolean": [],
      "dictionary": []
    },
    "subType": "gear",
    "equipped": false,
    "damage": {
      "parts": [],
      "critParts": [],
      "nonCritParts": []
    }
  },
  "flags": {},
  "img": "icons/commodities/stone/rock-chunk-grey.webp",
  "effects": []
}