{
  "_id": "wjvxmolafiegvesl",
  "name": "Pouch, Belt",
  "permission": {
    "default": 0
  },
  "type": "container",
  "data": {
    "description": {
      "value": "<p>This simple pouch is often made of soft cloth or leather. Usually used for keeping small items, such as coins, grouped up. Items stored in a belt pouch gain 100% bulk reduction for two Light items or two stacks of Trivial items.</p>",
      "chat": "",
      "unidentified": ""
    },
    "tags": [],
    "quantity": 1,
    "weight": "light",
    "price": 1,
    "maxCarryingWeight": 0.5,
    "identified": true,
    "hp": {
      "max": 10,
      "value": 10
    },
    "hardness": 0,
    "carried": true,
    "unidentified": {
      "price": 1,
      "name": "Pouch, Belt"
    },
    "identifiedName": "Pouch, Belt",
    "cl": 0,
    "aura": {
      "custom": false,
      "school": ""
    },
    "inventoryItems": [],
    "maxWeight": null,
    "weightReduction": 100,
    "baseWeight": "light",
    "sellMultiplier": 0.5,
    "currency": {
      "pp": 0,
      "gp": 0,
      "sp": 0,
      "cp": 0
    },
    "flags": {
      "boolean": [],
      "dictionary": []
    },
    "basePrice": 1,
    "damage": {
      "parts": [],
      "critParts": [],
      "nonCritParts": []
    }
  },
  "flags": {},
  "img": "icons/containers/bags/coinpouch-simple-leather-tan.webp",
  "effects": []
}