{
  "_id": "utmeueljqhfoiihp",
  "name": "Sack",
  "permission": {
    "default": 0
  },
  "type": "container",
  "data": {
    "description": {
      "value": "<p>A cloth bag that holds 3 bulk at 50% bulk reduction.</p>",
      "chat": "",
      "unidentified": ""
    },
    "tags": [],
    "quantity": 1,
    "weight": 1,
    "price": 0.1,
    "maxCarryingWeight": 3,
    "identified": true,
    "hp": {
      "max": 10,
      "value": 10
    },
    "hardness": 0,
    "carried": true,
    "unidentified": {
      "price": 0.1,
      "name": "Sack"
    },
    "identifiedName": "Sack",
    "cl": 0,
    "aura": {
      "custom": false,
      "school": ""
    },
    "inventoryItems": [],
    "maxWeight": null,
    "weightReduction": 50,
    "baseWeight": 1,
    "sellMultiplier": 0.5,
    "currency": {
      "pp": 0,
      "gp": 0,
      "sp": 0,
      "cp": 0
    },
    "flags": {
      "boolean": [],
      "dictionary": []
    },
    "basePrice": 0.1,
    "damage": {
      "parts": [],
      "critParts": [],
      "nonCritParts": []
    }
  },
  "flags": {},
  "img": "systems/pf1/icons/items/inventory/sack.jpg",
  "effects": []
}