{
  "_id": "VbG9W9dMz2jhgfCi",
  "name": "Confused",
  "permission": {
    "default": 0
  },
  "folder": "",
  "flags": {},
  "content": "<p>A confused creature is mentally befuddled and cannot act normally. A confused creature cannot tell the difference between ally and foe, treating all creatures as enemies. Allies wishing to cast a beneficial spell that requires a touch on a confused creature must succeed on a melee touch attack. If a confused creature is attacked, it attacks the creature that last attacked it until that creature is dead or out of sight.</p>\n<p>Roll on the following table at the beginning of each confused subject&rsquo;s turn each round to see what the subject does in that round.</p>\n<table style=\"box-sizing: border-box; border-spacing: 0px; background-color: #ffffff; margin: 10px; table-layout: fixed; border-color: #888888; min-width: 200px; max-width: 90%; color: #333333; font-family: Varela, sans-serif; height: 105px;\" border=\"1\" cellpadding=\"5\">\n<thead style=\"box-sizing: border-box; background-color: #cfe2f3;\">\n<tr style=\"box-sizing: border-box;\">\n<th style=\"box-sizing: border-box; padding: 2px; text-align: left; border: 1px solid #888888; width: 80px; height: 21px;\">d%</th>\n<th style=\"box-sizing: border-box; padding: 2px; text-align: left; border: 1px solid #888888; height: 21px; width: 552px;\">Behavior</th>\n</tr>\n</thead>\n<tbody style=\"box-sizing: border-box;\">\n<tr style=\"box-sizing: border-box;\">\n<td class=\"number\" style=\"box-sizing: border-box; padding: 2px; vertical-align: top; text-align: center; border: 1px solid #888888; height: 21px; width: 80px;\">01&ndash;25</td>\n<td class=\"text\" style=\"box-sizing: border-box; padding: 2px; vertical-align: top; border: 1px solid #888888; height: 21px; width: 552px;\">Act normally.</td>\n</tr>\n<tr style=\"box-sizing: border-box; background-color: #f3f3f3;\">\n<td class=\"number\" style=\"box-sizing: border-box; padding: 2px; vertical-align: top; text-align: center; border: 1px solid #888888; height: 21px; width: 80px;\">26&ndash;50</td>\n<td class=\"text\" style=\"box-sizing: border-box; padding: 2px; vertical-align: top; border: 1px solid #888888; height: 21px; width: 552px;\">Do nothing but babble incoherently.</td>\n</tr>\n<tr style=\"box-sizing: border-box;\">\n<td class=\"number\" style=\"box-sizing: border-box; padding: 2px; vertical-align: top; text-align: center; border: 1px solid #888888; height: 21px; width: 80px;\">51&ndash;75</td>\n<td class=\"text\" style=\"box-sizing: border-box; padding: 2px; vertical-align: top; border: 1px solid #888888; height: 21px; width: 552px;\">Deal 1d8 points of damage + Str modifier to self with item in hand.</td>\n</tr>\n<tr style=\"box-sizing: border-box; background-color: #f3f3f3;\">\n<td class=\"number\" style=\"box-sizing: border-box; padding: 2px; vertical-align: top; text-align: center; border: 1px solid #888888; height: 21px; width: 80px;\">76&ndash;100</td>\n<td class=\"text\" style=\"box-sizing: border-box; padding: 2px; vertical-align: top; border: 1px solid #888888; height: 21px; width: 552px;\">Attack nearest creature.</td>\n</tr>\n</tbody>\n</table>\n<p>A confused creature who can’t carry out the indicated action does nothing but babble incoherently. Attackers are not at any special advantage when attacking a confused creature. Any confused creature who is attacked automatically attacks its attackers on its next turn, as long as it is still confused when its turn comes. Note that a confused creature will not make attacks of opportunity against anything that it is not already devoted to attacking (either because of its most recent action or because it has just been attacked).</p>"
}