{
  "_id": "2pICNUG3g7O4obyu",
  "name": "Dazzled",
  "permission": {
    "default": 0
  },
  "folder": "",
  "flags": {},
  "content": "<p>The creature is unable to see well because of over-stimulation of the eyes. A dazzled creature takes a –1 penalty on attack rolls and sight-based Perception checks.</p>"
}