{
  "_id": "zW6gVKSaVFTrd9PY",
  "name": "Disabled",
  "permission": {
    "default": 0
  },
  "folder": "",
  "flags": {},
  "content": "<p>A character with 0 health is disabled. A disabled character may take a single move action or standard action each round (but not both, nor can they take full-round actions, but they can still take swift, immediate, and free actions). The character moves at half speed. Taking move actions doesn’t risk further injury, but performing any standard action deals 1 point of damage after the completion of the act.</p>"
}