{
  "_id": "nku8mgRBNt0iXqzB",
  "name": "Fatigued",
  "permission": {
    "default": 0
  },
  "folder": "",
  "flags": {},
  "content": "<p>A fatigued character can neither run nor charge and takes a –2 penalty on all attack rolls and AC. Doing anything that would normally cause fatigue causes the fatigued character to become exhausted. After 8 hours of complete rest, fatigued characters are no longer fatigued.</p>"
}