{
  "_id": "07JPXUqIPshVnTCL",
  "name": "Shaken",
  "permission": {
    "default": 0
  },
  "folder": "",
  "flags": {},
  "content": "<p>A shaken character takes a –2 penalty on attack rolls, saving throws, skill checks, and ability checks. Shaken is a less severe state of fear than frightened or panicked.</p>"
}