{
  "_id": "6LpiJdKskDFD4zLC",
  "name": "Staggered",
  "permission": {
    "default": 0
  },
  "folder": "",
  "flags": {},
  "content": "<p>A staggered creature may take a single move action or standard action each round (but not both, nor can they take full-round actions). A staggered creature can still take free, swift, and immediate actions. A creature with nonlethal damage exactly equal to its current health gains the staggered condition.</p>"
}