{
  "_id": "assqfdN6G1URo9MZ",
  "name": "Stunned",
  "permission": {
    "default": 0
  },
  "folder": "",
  "flags": {},
  "content": "<p>A stunned creature drops everything held, can’t take actions, takes a –2 penalty to AC, and is flat-footed.</p>\n<p>Attackers receive a +4 bonus on attack rolls to perform combat maneuvers against a stunned opponent.</p>"
}