{
  "_id": "rm5kl4j5srzgr334",
  "name": "Brain Drain",
  "permission": {
    "default": 0
  },
  "type": "spell",
  "data": {
    "description": {
      "value": "<div class=\"spell-description\">\r\n  <p>\r\n    <strong>Casting Time</strong>&nbsp;1 standard<br>\r\n    <strong>Components</strong>&nbsp;S, M (A silver hair)<br>\r\n  </p>\r\n  <p>\r\n    <strong>Range</strong>&nbsp;short (25 ft. + 5 ft./2 level)<br>\r\n    \r\n    <strong>Targets</strong>&nbsp;One target<br>\r\n    \r\n    <strong>Duration</strong>&nbsp;instantaneous<br>\r\n    \r\n    <strong>Spell Resistance</strong>&nbsp;yes<br>\r\n  </p>\r\n  <h2>Description</h2>\r\n  <p>A ray of psychic energy launches from your fingertips. The ray deals 1d4 psychic damage per caster level, to a maximum of 4d4. If the target takes damage they must make a Lore check on a subject of your choice. If they succeed you learn the same information.</p>\r\n</div>\r\n",
      "chat": "",
      "unidentified": ""
    },
    "tags": [],
    "activation": {
      "cost": 1,
      "type": "standard"
    },
    "unchainedAction": {
      "activation": {
        "cost": 2,
        "type": "action"
      }
    },
    "duration": {
      "value": null,
      "units": ""
    },
    "target": {
      "value": "One creature"
    },
    "range": {
      "value": null,
      "units": "short",
      "maxIncrements": 1,
      "minValue": null,
      "minUnits": ""
    },
    "uses": {
      "value": 0,
      "max": 0,
      "per": "",
      "autoDeductCharges": true,
      "autoDeductChargesCost": "1"
    },
    "measureTemplate": {
      "type": "",
      "size": "0",
      "overrideColor": false,
      "customColor": "",
      "overrideTexture": false,
      "customTexture": ""
    },
    "attackName": "",
    "actionType": "ray",
    "attackBonus": "",
    "critConfirmBonus": "",
    "damage": {
      "parts": [
        [
          "(min(4, @cl))d4",
          "Psychic"
        ]
      ],
      "critParts": [],
      "nonCritParts": []
    },
    "attackParts": [],
    "formulaicAttacks": {
      "count": {
        "formula": "",
        "value": null
      },
      "bonus": {
        "formula": ""
      },
      "label": null
    },
    "formula": "",
    "ability": {
      "attack": "",
      "damage": "",
      "damageMult": 1,
      "critRange": 20,
      "critMult": 2
    },
    "save": {
      "dc": 0,
      "type": "",
      "description": ""
    },
    "effectNotes": "",
    "attackNotes": [],
    "soundEffect": "",
    "links": {
      "children": []
    },
    "flags": {
      "boolean": [],
      "dictionary": []
    },
    "level": 1,
    "clOffset": 0,
    "slOffset": 0,
    "school": "astral",
    "traits": {
      "air": false,
      "ast": true,
      "bln": false,
      "bom": false,
      "cnf": true,
      "cmb": false,
      "crr": false,
      "ert": false,
      "eth": false,
      "fir": false,
      "frz": false,
      "lgh": false,
      "nat": false,
      "ser": false,
      "shd": false,
      "shc": false,
      "wtr": false,
      "wth": false
    },
    "conditionals": [],
    "components": {
      "value": "",
      "verbal": false,
      "somatic": true,
      "material": true,
      "focus": false
    },
    "castTime": "",
    "materials": {
      "value": "A silver hair",
      "focus": "",
      "spValue": 0
    },
    "spellbook": "arcane",
    "autoDeductCharges": true,
    "atWill": false,
    "sr": true,
    "shortDescription": "<p>A ray of psychic energy launches from your fingertips. The ray deals 1d4 psychic damage per caster level, to a maximum of 4d4. If the target takes damage they must make a Lore check on a subject of your choice. If they succeed you learn the same information.</p>",
    "spellDuration": "instantaneous",
    "spellEffect": "",
    "spellArea": "",
    "showInQuickbar": false,
    "slotCost": 1
  },
  "flags": {},
  "img": "systems/pf1/icons/spells/link-spirit-1.jpg",
  "effects": []
}