{
  "name": "Dimension Door",
  "type": "spell",
  "img": "icons/skills/targeting/target-glowing-yellow.webp",
  "data": {
    "description": {
      "value": "",
      "chat": "",
      "unidentified": ""
    },
    "tags": [],
    "activation": {
      "cost": 1,
      "type": "standard"
    },
    "unchainedAction": {
      "activation": {
        "cost": 1,
        "type": ""
      }
    },
    "duration": {
      "value": null,
      "units": ""
    },
    "target": {
      "value": "One willing creature/3 levels"
    },
    "range": {
      "value": null,
      "units": "long",
      "maxIncrements": 1,
      "minValue": null,
      "minUnits": ""
    },
    "uses": {
      "value": 0,
      "per": null,
      "autoDeductCharges": true,
      "autoDeductChargesCost": "1",
      "maxFormula": ""
    },
    "measureTemplate": {
      "type": "",
      "size": "",
      "overrideColor": false,
      "customColor": "",
      "overrideTexture": false,
      "customTexture": ""
    },
    "attackName": "",
    "actionType": "",
    "attackBonus": "",
    "critConfirmBonus": "",
    "damage": {
      "parts": [],
      "critParts": [],
      "nonCritParts": []
    },
    "attackParts": [],
    "formulaicAttacks": {
      "count": {
        "formula": "",
        "value": null
      },
      "bonus": {
        "formula": ""
      },
      "label": null
    },
    "formula": "",
    "ability": {
      "attack": null,
      "damage": null,
      "damageMult": 1,
      "critRange": 20,
      "critMult": 2
    },
    "save": {
      "dc": 0,
      "type": "",
      "description": ""
    },
    "effectNotes": [],
    "attackNotes": [],
    "soundEffect": "",
    "links": {
      "children": []
    },
    "flags": {
      "boolean": [],
      "dictionary": []
    },
    "scriptCalls": [],
    "level": 4,
    "clOffset": 0,
    "slOffset": 0,
    "school": "astral",
    "types": "",
    "traits": {
      "air": false,
      "ast": true,
      "cmb": false,
      "ert": false,
      "eth": false,
      "fir": false,
      "lgh": false,
      "nat": false,
      "shd": false,
      "wtr": false,
      "bln": false,
      "bom": false,
      "cnf": false,
      "crr": false,
      "frz": false,
      "ser": false,
      "shc": false,
      "wth": false
    },
    "conditionals": [],
    "components": {
      "value": "",
      "verbal": true,
      "somatic": false,
      "thought": false,
      "emotion": false,
      "material": false,
      "focus": false
    },
    "castTime": "",
    "materials": {
      "value": "",
      "focus": "",
      "spValue": 0
    },
    "spellbook": "",
    "atWill": false,
    "autoDeductCharges": true,
    "sr": false,
    "shortDescription": "<p>You instantly transfer yourself from your current location to any other spot within range. You always arrive at exactly the spot desired - whether by simply visualizing the area or by stating direction. After using this spell, you can’t take any other actions until your next turn. You can bring along objects as long as their bulk doesn’t exceed your maximum load. You may also bring one additional willing creature per three caster levels. All creatures to be transported must be in contact with one another, and at least one of those creatures must be in contact with you.</p>",
    "spellDuration": "instantaneous",
    "spellEffect": "",
    "spellArea": "",
    "showInQuickbar": false,
    "clCheck": false,
    "identifiedName": "Dimension Door"
  },
  "effects": [],
  "flags": {}
}