{
  "name": "Dimension Step",
  "type": "spell",
  "img": "icons/skills/movement/arrows-up-trio-red.webp",
  "data": {
    "description": {
      "value": "<div class=\"spell-description\">\r\n  <p>\r\n    <strong>Casting Time</strong>&nbsp;1 standard<br>\r\n    <strong>Components</strong>&nbsp;V, S<br>\r\n    <strong>Traits</strong>&nbsp;Astral<br>\r\n  </p>\r\n  <p>\r\n    <strong>Range</strong>&nbsp;short (25 ft. + 5 ft./2 levels)<br>\r\n    \r\n    <strong>Targets</strong>&nbsp;One willing creature/2 levels<br>\r\n    \r\n    <strong>Duration</strong>&nbsp;Instantaneous<br>\r\n    \r\n    <strong>Spell Resistance</strong>&nbsp;no<br>\r\n  </p>\r\n  <h2>Description</h2>\r\n  <p>All creatures targeted by this spell can teleport a distance equal to their land speed. A target can teleport to any square within its line of sight. This movement does not provoke attacks of opportunity. A creature can teleport up to a ledge, down to the base of a flight of stairs, and so forth as long as it observes the restrictions and limits given above.</p>\r\n</div>\r\n",
      "chat": "",
      "unidentified": ""
    },
    "tags": [],
    "activation": {
      "cost": 1,
      "type": "standard"
    },
    "unchainedAction": {
      "activation": {
        "cost": 2,
        "type": "action"
      }
    },
    "duration": {
      "value": null,
      "units": ""
    },
    "target": {
      "value": "One willing creature/3 levels"
    },
    "range": {
      "value": null,
      "units": "short",
      "maxIncrements": 1,
      "minValue": null,
      "minUnits": ""
    },
    "uses": {
      "value": 0,
      "max": 0,
      "per": null,
      "autoDeductCharges": true,
      "autoDeductChargesCost": "1"
    },
    "measureTemplate": {
      "type": "",
      "size": "",
      "overrideColor": false,
      "customColor": "",
      "overrideTexture": false,
      "customTexture": ""
    },
    "attackName": "",
    "actionType": "",
    "attackBonus": "",
    "critConfirmBonus": "",
    "damage": {
      "parts": [],
      "critParts": [],
      "nonCritParts": []
    },
    "attackParts": [],
    "formulaicAttacks": {
      "count": {
        "formula": "",
        "value": null
      },
      "bonus": {
        "formula": ""
      },
      "label": null
    },
    "formula": "",
    "ability": {
      "attack": null,
      "damage": null,
      "damageMult": 1,
      "critRange": 20,
      "critMult": 2
    },
    "save": {
      "dc": 0,
      "type": "",
      "description": ""
    },
    "effectNotes": "",
    "attackNotes": [],
    "soundEffect": "",
    "links": {
      "children": []
    },
    "flags": {
      "boolean": [],
      "dictionary": []
    },
    "scriptCalls": [],
    "level": 3,
    "clOffset": 0,
    "slOffset": 0,
    "school": "air",
    "types": "",
    "traits": {
      "air": false,
      "ast": true,
      "cmb": false,
      "ert": false,
      "eth": false,
      "fir": false,
      "lgh": false,
      "nat": false,
      "shd": false,
      "wtr": false,
      "bln": false,
      "bom": false,
      "cnf": false,
      "crr": false,
      "frz": false,
      "ser": false,
      "shc": false,
      "wth": false
    },
    "conditionals": [],
    "components": {
      "value": "",
      "verbal": true,
      "somatic": true,
      "material": false,
      "focus": false
    },
    "castTime": "",
    "materials": {
      "value": "",
      "focus": "",
      "spValue": 0
    },
    "spellbook": "",
    "atWill": false,
    "autoDeductCharges": true,
    "sr": false,
    "shortDescription": "<p>All creatures targeted by this spell can teleport a distance equal to their land speed. A target can teleport to any square within its line of sight. This movement does not provoke attacks of opportunity. A creature can teleport up to a ledge, down to the base of a flight of stairs, and so forth as long as it observes the restrictions and limits given above.</p>",
    "spellDuration": "Instantaneous",
    "spellEffect": "",
    "spellArea": "",
    "showInQuickbar": false,
    "identifiedName": "Dimension Step",
    "slotCost": 1
  },
  "effects": [],
  "sort": 0,
  "flags": {}
}