{
  "_id": "4yfd85igzmvu154d",
  "name": "Disrupting Roar",
  "permission": {
    "default": 0
  },
  "type": "spell",
  "data": {
    "description": {
      "value": "<div class=\"spell-description\">\r\n  <p>\r\n    <strong>Casting Time</strong>&nbsp;1 standard<br>\r\n    <strong>Components</strong>&nbsp;V<br>\r\n  </p>\r\n  <p>\r\n    <strong>Area</strong>&nbsp;15ft cone-shaped Burst<br>\r\n    \r\n    <strong>Duration</strong>&nbsp;Instantaneous<br>\r\n    \r\n    <strong>Spell Resistance</strong>&nbsp;no<br>\r\n  </p>\r\n  <h2>Description</h2>\r\n  <p>You let loose a powerful roar that deals 1d6 points of force damage per 2 caster levels (maximum 5d6) to every creature within the area. Any creature that you Succeed in hitting also loses any resistance to acid, cold, fire or lightning, and spell resistance it has for 1 round per level (maximum 5 rounds).</p>\r\n</div>\r\n",
      "chat": "",
      "unidentified": ""
    },
    "tags": [],
    "activation": {
      "cost": 1,
      "type": "standard"
    },
    "unchainedAction": {
      "activation": {
        "cost": 2,
        "type": "action"
      }
    },
    "duration": {
      "value": null,
      "units": ""
    },
    "target": {
      "value": ""
    },
    "range": {
      "value": null,
      "units": "personal",
      "maxIncrements": 1,
      "minValue": null,
      "minUnits": ""
    },
    "uses": {
      "value": 0,
      "max": 0,
      "per": "",
      "autoDeductCharges": true,
      "autoDeductChargesCost": "1"
    },
    "measureTemplate": {
      "type": "cone",
      "size": "15",
      "overrideColor": false,
      "customColor": "",
      "overrideTexture": false,
      "customTexture": ""
    },
    "attackName": "",
    "actionType": "burst",
    "attackBonus": "",
    "critConfirmBonus": "",
    "damage": {
      "parts": [
        [
          "(min(5, floor(@cl/2)))d6",
          "Force"
        ]
      ],
      "critParts": [],
      "nonCritParts": []
    },
    "attackParts": [],
    "formulaicAttacks": {
      "count": {
        "formula": "",
        "value": null
      },
      "bonus": {
        "formula": ""
      },
      "label": null
    },
    "formula": "",
    "ability": {
      "attack": "",
      "damage": "",
      "damageMult": 1,
      "critRange": 20,
      "critMult": 2
    },
    "save": {
      "dc": 0,
      "type": "",
      "description": ""
    },
    "effectNotes": "",
    "attackNotes": [],
    "soundEffect": "",
    "links": {
      "children": []
    },
    "flags": {
      "boolean": [],
      "dictionary": []
    },
    "level": 3,
    "clOffset": 0,
    "slOffset": 0,
    "school": "ethereal",
    "traits": {
      "air": false,
      "ast": false,
      "bln": false,
      "bom": true,
      "cnf": false,
      "cmb": false,
      "crr": false,
      "ert": false,
      "eth": true,
      "fir": false,
      "frz": false,
      "lgh": false,
      "nat": false,
      "ser": false,
      "shd": false,
      "shc": false,
      "wtr": false,
      "wth": false
    },
    "conditionals": [],
    "components": {
      "value": "",
      "verbal": true,
      "somatic": false,
      "material": false,
      "focus": false
    },
    "castTime": "",
    "materials": {
      "value": "",
      "focus": "",
      "spValue": 0
    },
    "spellbook": "arcane",
    "autoDeductCharges": true,
    "atWill": false,
    "sr": true,
    "shortDescription": "<p>You let loose a powerful roar that deals 1d6 points of force damage per 2 caster levels (maximum 5d6) to every creature within the area. Any creature that you Succeed in hitting also loses any resistance to acid, cold, fire or lightning, and spell resistance it has for 1 round per level (maximum 5 rounds).</p>",
    "spellDuration": "Instantaneous",
    "spellEffect": "",
    "spellArea": "15ft cone-shaped Burst",
    "showInQuickbar": false,
    "slotCost": 1
  },
  "flags": {},
  "img": "systems/pf1/icons/spells/air-burst-sky-2.jpg",
  "effects": []
}