{
  "_id": "6oq1wcryviik9ice",
  "name": "Fireball",
  "permission": {
    "default": 0
  },
  "type": "spell",
  "data": {
    "description": {
      "value": "<div class=\"spell-description\">\r\n  <p>\r\n    <strong>Casting Time</strong>&nbsp;1 standard<br>\r\n    <strong>Components</strong>&nbsp;V, S, M (bat guano)<br>\r\n  </p>\r\n  <p>\r\n    <strong>Range</strong>&nbsp;long (100 ft. + 10 ft./level)<br>\r\n    \r\n    <strong>Area</strong>&nbsp;20ft radius sphere<br>\r\n    \r\n    <strong>Duration</strong>&nbsp;instantaneous<br>\r\n    \r\n    <strong>Spell Resistance</strong>&nbsp;yes<br>\r\n  </p>\r\n  <h2>Description</h2>\r\n  <p>A <i>fireball</i> spell generates a searing explosion of flame that detonates with a low roar and deals 1d6 points of fire damage per caster level (maximum 10d6) to every creature within the area. Unattended objects also take this damage. The explosion creates almost no pressure. The fireball sets fire to combustibles and damages objects in the area.</p>\r\n</div>\r\n",
      "chat": "",
      "unidentified": ""
    },
    "tags": [],
    "activation": {
      "cost": 1,
      "type": "standard"
    },
    "unchainedAction": {
      "activation": {
        "cost": 2,
        "type": "action"
      }
    },
    "duration": {
      "value": null,
      "units": ""
    },
    "target": {
      "value": ""
    },
    "range": {
      "value": null,
      "units": "long",
      "maxIncrements": 1,
      "minValue": null,
      "minUnits": ""
    },
    "uses": {
      "value": 0,
      "max": 0,
      "per": "",
      "autoDeductCharges": true,
      "autoDeductChargesCost": "1"
    },
    "measureTemplate": {
      "type": "circle",
      "size": "20",
      "overrideColor": false,
      "customColor": "",
      "overrideTexture": false,
      "customTexture": ""
    },
    "attackName": "",
    "actionType": "burst",
    "attackBonus": "",
    "critConfirmBonus": "",
    "damage": {
      "parts": [
        [
          "(min(10, @cl))d6",
          "Fire"
        ]
      ],
      "critParts": [],
      "nonCritParts": []
    },
    "attackParts": [],
    "formulaicAttacks": {
      "count": {
        "formula": "",
        "value": null
      },
      "bonus": {
        "formula": ""
      },
      "label": null
    },
    "formula": "",
    "ability": {
      "attack": "",
      "damage": "",
      "damageMult": 1,
      "critRange": 20,
      "critMult": 2
    },
    "save": {
      "dc": 0,
      "type": "",
      "description": ""
    },
    "effectNotes": "",
    "attackNotes": [],
    "soundEffect": "",
    "links": {
      "children": []
    },
    "flags": {
      "boolean": [],
      "dictionary": []
    },
    "level": 3,
    "clOffset": 0,
    "slOffset": 0,
    "school": "fire",
    "traits": {
      "air": false,
      "ast": false,
      "bln": false,
      "bom": false,
      "cnf": false,
      "cmb": false,
      "crr": false,
      "ert": false,
      "eth": false,
      "fir": true,
      "frz": false,
      "lgh": false,
      "nat": false,
      "ser": true,
      "shd": false,
      "shc": false,
      "wtr": false,
      "wth": false
    },
    "conditionals": [],
    "components": {
      "value": "",
      "verbal": true,
      "somatic": true,
      "material": true,
      "focus": false
    },
    "castTime": "",
    "materials": {
      "value": "bat guano",
      "focus": "",
      "spValue": 0
    },
    "spellbook": "arcane",
    "autoDeductCharges": true,
    "atWill": false,
    "sr": true,
    "shortDescription": "<p>A <i>fireball</i> spell generates a searing explosion of flame that detonates with a low roar and deals 1d6 points of fire damage per caster level (maximum 10d6) to every creature within the area. Unattended objects also take this damage. The explosion creates almost no pressure. The fireball sets fire to combustibles and damages objects in the area.</p>",
    "spellDuration": "instantaneous",
    "spellEffect": "",
    "spellArea": "20ft radius Sphere",
    "showInQuickbar": false,
    "slotCost": 1
  },
  "flags": {},
  "img": "systems/pf1/icons/spells/fireball-red-2.jpg",
  "effects": []
}