{
  "_id": "vefvam94asoxl7ow",
  "name": "Gloomblind Bolts",
  "permission": {
    "default": 0
  },
  "type": "spell",
  "data": {
    "description": {
      "value": "<div class=\"spell-description\">\r\n  <p>\r\n    <strong>Casting Time</strong>&nbsp;1 standard<br>\r\n    <strong>Components</strong>&nbsp;V, S<br>\r\n  </p>\r\n  <p>\r\n    <strong>Range</strong>&nbsp;long (100 ft. + 10 ft./level)<br>\r\n    \r\n    <strong>Targets</strong>&nbsp;One target per bolt<br>\r\n    \r\n    <strong>Duration</strong>&nbsp;instantaneous<br>\r\n      \r\n      <strong>Saving Throw</strong>&nbsp;Basic Spirit Save<br>\r\n    \r\n    <strong>Spell Resistance</strong>&nbsp;yes<br>\r\n  </p>\r\n  <h2>Description</h2>\r\n  <p>You create one or more bolts of negative energy infused with shadow pulled from the Plane of Shadow. You can fire one bolt, plus one for every six caster levels beyond 5th (to a maximum of three bolts at 17th caster level) at the same or different targets, but all bolts must be aimed at targets within 30 feet of each other. Each bolt deals 4d6 points of necrotic damage to a living creature or heals 4d6 points of damage to an undead creature. Furthermore, the bolt’s energy spreads over the skin of the creature, possibly blinding it for a short time, any creature that Critical Fails its save becomes blinded for 1 round.</p>\r\n</div>\r\n",
      "chat": "",
      "unidentified": ""
    },
    "tags": [],
    "activation": {
      "cost": 1,
      "type": "standard"
    },
    "unchainedAction": {
      "activation": {
        "cost": 2,
        "type": "action"
      }
    },
    "duration": {
      "value": null,
      "units": ""
    },
    "target": {
      "value": "One target per bolt"
    },
    "range": {
      "value": null,
      "units": "long",
      "maxIncrements": 1,
      "minValue": null,
      "minUnits": ""
    },
    "uses": {
      "value": 0,
      "max": 0,
      "per": "",
      "autoDeductCharges": true,
      "autoDeductChargesCost": "1"
    },
    "measureTemplate": {
      "type": "",
      "size": "0",
      "overrideColor": false,
      "customColor": "",
      "overrideTexture": false,
      "customTexture": ""
    },
    "attackName": "Bolt",
    "actionType": "spellsave",
    "attackBonus": "",
    "critConfirmBonus": "",
    "damage": {
      "parts": [
        [
          "4d6",
          "Necrotic"
        ]
      ],
      "critParts": [],
      "nonCritParts": []
    },
    "attackParts": [],
    "formulaicAttacks": {
      "count": {
        "formula": "min(3, floor((@cl + 1) / 6)) - 1",
        "value": null
      },
      "bonus": {
        "formula": ""
      },
      "label": "Bolt #{0}"
    },
    "formula": "",
    "ability": {
      "attack": "",
      "damage": "",
      "damageMult": 1,
      "critRange": 20,
      "critMult": 2
    },
    "save": {
      "dc": "0",
      "type": "sprSave",
      "description": "Basic Spirit Save"
    },
    "effectNotes": "",
    "attackNotes": [],
    "soundEffect": "",
    "links": {
      "children": []
    },
    "flags": {
      "boolean": [],
      "dictionary": []
    },
    "level": 3,
    "clOffset": 0,
    "slOffset": 0,
    "school": "shadow",
    "traits": {
      "air": false,
      "ast": false,
      "bln": false,
      "bom": false,
      "cnf": false,
      "cmb": false,
      "crr": false,
      "ert": false,
      "eth": false,
      "fir": false,
      "frz": false,
      "lgh": false,
      "nat": false,
      "ser": false,
      "shd": true,
      "shc": false,
      "wtr": false,
      "wth": true
    },
    "conditionals": [],
    "components": {
      "value": "",
      "verbal": true,
      "somatic": true,
      "material": false,
      "focus": false
    },
    "castTime": "",
    "materials": {
      "value": "",
      "focus": "",
      "spValue": 0
    },
    "spellbook": "divine",
    "autoDeductCharges": true,
    "atWill": false,
    "sr": true,
    "shortDescription": "<p>You create one or more bolts of negative energy infused with shadow pulled from the Plane of Shadow. You can fire one bolt, plus one for every six caster levels beyond 5th (to a maximum of three bolts at 17th caster level) at the same or different targets, but all bolts must be aimed at targets within 30 feet of each other. Each bolt deals 4d6 points of necrotic damage to a living creature or heals 4d6 points of damage to an undead creature. Furthermore, the bolt’s energy spreads over the skin of the creature, possibly blinding it for a short time, any creature that Critical Fails its save becomes blinded for 1 round.</p>",
    "spellDuration": "instantaneous",
    "spellEffect": "",
    "spellArea": "",
    "showInQuickbar": false,
    "slotCost": 1
  },
  "flags": {},
  "img": "systems/pf1/icons/spells/fireball-eerie-2.jpg",
  "effects": []
}