{
  "name": "Gravity Hammer",
  "type": "spell",
  "img": "icons/magic/sonic/explosion-shock-wave-teal.webp",
  "data": {
    "description": {
      "value": "",
      "chat": "",
      "unidentified": ""
    },
    "tags": [],
    "activation": {
      "cost": 1,
      "type": "standard"
    },
    "unchainedAction": {
      "activation": {
        "cost": 1,
        "type": ""
      }
    },
    "duration": {
      "value": null,
      "units": ""
    },
    "target": {
      "value": ""
    },
    "range": {
      "value": null,
      "units": "close",
      "maxIncrements": 1,
      "minValue": null,
      "minUnits": ""
    },
    "uses": {
      "value": 0,
      "per": null,
      "autoDeductCharges": true,
      "autoDeductChargesCost": "1",
      "maxFormula": ""
    },
    "measureTemplate": {
      "type": "circle",
      "size": "15",
      "overrideColor": false,
      "customColor": "",
      "overrideTexture": false,
      "customTexture": ""
    },
    "attackName": "",
    "actionType": "spellsave",
    "attackBonus": "",
    "critConfirmBonus": "",
    "damage": {
      "parts": [
        [
          "min(@cl, 15)d4",
          "Force"
        ]
      ],
      "critParts": [],
      "nonCritParts": []
    },
    "attackParts": [],
    "formulaicAttacks": {
      "count": {
        "formula": "",
        "value": null
      },
      "bonus": {
        "formula": ""
      },
      "label": null
    },
    "formula": "",
    "ability": {
      "attack": null,
      "damage": "",
      "damageMult": 1,
      "critRange": 20,
      "critMult": 2
    },
    "save": {
      "dc": "0",
      "type": "sprSave",
      "description": "Basic Spirit Save"
    },
    "effectNotes": [
      "All creatures who fail their save are Staggered for [[1d6]] rounds."
    ],
    "attackNotes": [],
    "soundEffect": "",
    "links": {
      "children": []
    },
    "flags": {
      "boolean": [],
      "dictionary": []
    },
    "scriptCalls": [],
    "level": 4,
    "clOffset": 0,
    "slOffset": 0,
    "school": "ethereal",
    "types": "",
    "traits": {
      "air": false,
      "ast": false,
      "cmb": true,
      "ert": false,
      "eth": true,
      "fir": false,
      "lgh": false,
      "nat": false,
      "shd": false,
      "wtr": false,
      "bln": false,
      "bom": true,
      "cnf": false,
      "crr": false,
      "frz": false,
      "ser": false,
      "shc": false,
      "wth": false
    },
    "conditionals": [],
    "components": {
      "value": "",
      "verbal": true,
      "somatic": true,
      "thought": false,
      "emotion": false,
      "material": false,
      "focus": false
    },
    "castTime": "",
    "materials": {
      "value": "",
      "focus": "",
      "spValue": 0
    },
    "spellbook": "divine",
    "atWill": false,
    "autoDeductCharges": true,
    "sr": true,
    "shortDescription": "<p>This spell summons a giant hammer of gravity smashing down upon your enemies. Creatures in the area must make a Spirit Save or take 1d4 points of force damage per caster level (max 15d4). All creatures who fail their save are Staggered for 1d6 rounds.</p>",
    "spellDuration": "instantaneous",
    "spellEffect": "",
    "spellArea": "15ft radius Sphere",
    "showInQuickbar": false,
    "clCheck": false,
    "identifiedName": "Gravity Hammer"
  },
  "effects": [],
  "flags": {}
}