{
  "name": "Healing Word",
  "type": "spell",
  "img": "icons/magic/sonic/explosion-impact-shock-wave.webp",
  "data": {
    "description": {
      "value": "",
      "chat": "",
      "unidentified": ""
    },
    "tags": [],
    "activation": {
      "cost": 1,
      "type": "swift"
    },
    "unchainedAction": {
      "activation": {
        "cost": 1,
        "type": ""
      }
    },
    "duration": {
      "value": null,
      "units": ""
    },
    "target": {
      "value": "One creature"
    },
    "range": {
      "value": null,
      "units": "short",
      "maxIncrements": 1,
      "minValue": null,
      "minUnits": ""
    },
    "uses": {
      "value": 0,
      "per": null,
      "autoDeductCharges": true,
      "autoDeductChargesCost": "1",
      "maxFormula": ""
    },
    "measureTemplate": {
      "type": "",
      "size": "",
      "overrideColor": false,
      "customColor": "",
      "overrideTexture": false,
      "customTexture": ""
    },
    "attackName": "",
    "actionType": "restore",
    "attackBonus": "",
    "critConfirmBonus": "",
    "damage": {
      "parts": [
        [
          "1d4 + min(5, @cl)",
          "Restoration"
        ]
      ],
      "critParts": [],
      "nonCritParts": []
    },
    "attackParts": [],
    "formulaicAttacks": {
      "count": {
        "formula": "",
        "value": null
      },
      "bonus": {
        "formula": ""
      },
      "label": null
    },
    "formula": "",
    "ability": {
      "attack": null,
      "damage": "",
      "damageMult": 1,
      "critRange": 20,
      "critMult": 2
    },
    "save": {
      "dc": "0",
      "type": "",
      "description": ""
    },
    "effectNotes": [],
    "attackNotes": [],
    "soundEffect": "",
    "powerAttack": {
      "multiplier": "",
      "damageBonus": 2,
      "critMultiplier": 1
    },
    "links": {
      "children": []
    },
    "flags": {
      "boolean": [],
      "dictionary": []
    },
    "scriptCalls": [],
    "level": 1,
    "clOffset": 0,
    "slOffset": 0,
    "school": "light",
    "types": "",
    "traits": {
      "air": false,
      "ast": false,
      "cmb": false,
      "ert": false,
      "eth": false,
      "fir": false,
      "lgh": true,
      "nat": false,
      "shd": false,
      "wtr": false,
      "bln": false,
      "bom": false,
      "cnf": false,
      "crr": false,
      "frz": false,
      "ser": false,
      "shc": false,
      "wth": false
    },
    "conditionals": [],
    "components": {
      "value": "",
      "verbal": true,
      "somatic": false,
      "thought": false,
      "emotion": false,
      "material": false,
      "focus": false
    },
    "castTime": "",
    "materials": {
      "value": "",
      "focus": "",
      "spValue": 0
    },
    "spellbook": "divine",
    "atWill": false,
    "autoDeductCharges": true,
    "sr": false,
    "shortDescription": "<p><span style=\"color: #191813; font-size: 13px;\">Targeted creature's vitality is slightly restored. Target creature regains 1d4 restoration plus 1 per caster level (maximum +5).</span></p>",
    "spellDuration": "instantaneous",
    "spellEffect": "",
    "spellArea": "",
    "showInQuickbar": false,
    "clCheck": false,
    "identifiedName": "Healing Word"
  },
  "effects": [],
  "flags": {}
}