{
  "_id": "yk5bgi6j9kbtigoh",
  "name": "Ironbeard",
  "permission": {
    "default": 0
  },
  "type": "spell",
  "data": {
    "description": {
      "value": "<div class=\"spell-description\">\r\n  <p>\r\n    <strong>Casting Time</strong>&nbsp;1 standard<br>\r\n    <strong>Components</strong>&nbsp;V, S<br>\r\n  </p>\r\n  <p>\r\n    <strong>Range</strong>&nbsp;close (5 ft. + 5 ft./4 levels)<br>\r\n    \r\n    <strong>Targets</strong>&nbsp;One willing creature<br>\r\n    \r\n    <strong>Duration</strong>&nbsp;1 min/level<br>\r\n    \r\n    <strong>Spell Resistance</strong>&nbsp;no<br>\r\n  </p>\r\n  <h2>Description</h2>\r\n  <p>A bushy beard of stiff iron erupts from the face of the creature. This beard grants a +1 armor bonus to AC, this bonus stacks with any armor worn. The beard may also be used as a weapon equivalent to cold iron armor spikes. The stiffness of the beard makes it difficult to speak, imposing a -4 penalty to Captivate and Diplomacy checks.</p>\r\n</div>\r\n",
      "chat": "",
      "unidentified": ""
    },
    "tags": [],
    "activation": {
      "cost": 1,
      "type": "standard"
    },
    "unchainedAction": {
      "activation": {
        "cost": 2,
        "type": "action"
      }
    },
    "duration": {
      "value": null,
      "units": ""
    },
    "target": {
      "value": "One willing creature"
    },
    "range": {
      "value": null,
      "units": "close",
      "maxIncrements": 1,
      "minValue": null,
      "minUnits": ""
    },
    "uses": {
      "value": 0,
      "max": 0,
      "per": "",
      "autoDeductCharges": true,
      "autoDeductChargesCost": "1"
    },
    "measureTemplate": {
      "type": "",
      "size": "",
      "overrideColor": false,
      "customColor": "",
      "overrideTexture": false,
      "customTexture": ""
    },
    "attackName": "",
    "actionType": "",
    "attackBonus": "",
    "critConfirmBonus": "",
    "damage": {
      "parts": [],
      "critParts": [],
      "nonCritParts": []
    },
    "attackParts": [],
    "formulaicAttacks": {
      "count": {
        "formula": "",
        "value": null
      },
      "bonus": {
        "formula": ""
      },
      "label": null
    },
    "formula": "",
    "ability": {
      "attack": "",
      "damage": "",
      "damageMult": 1,
      "critRange": 20,
      "critMult": 2
    },
    "save": {
      "dc": "",
      "type": "",
      "description": ""
    },
    "effectNotes": "",
    "attackNotes": [],
    "soundEffect": "",
    "links": {
      "children": []
    },
    "flags": {
      "boolean": [],
      "dictionary": []
    },

    "level": 1,
    "clOffset": 0,
    "slOffset": 0,
    "school": "natural",
    "traits": {
      "air": false,
      "ast": true,
      "bln": false,
      "bom": false,
      "cnf": false,
      "cmb": false,
      "crr": false,
      "ert": false,
      "eth": false,
      "fir": false,
      "frz": false,
      "lgh": false,
      "nat": true,
      "ser": false,
      "shd": false,
      "shc": false,
      "wtr": false,
      "wth": false
    },
    "conditionals": [],
    "components": {
      "value": "",
      "verbal": true,
      "somatic": true,
      "material": false,
      "focus": false
    },
    "castTime": "",
    "materials": {
      "value": "",
      "focus": "",
      "spValue": 0
    },
    "spellbook": "divine",
    "autoDeductCharges": true,
    "atWill": false,
    "sr": false,
    "shortDescription": "<p>A bushy beard of stiff iron erupts from the face of the creature. This beard grants a +1 armor bonus to AC, this bonus stacks with any armor worn. The beard may also be used as a weapon equivalent to cold iron armor spikes. The stiffness of the beard makes it difficult to speak, imposing a -4 penalty to Captivate and Diplomacy checks.</p>",
    "spellDuration": "1 min/level",
    "spellEffect": "",
    "spellArea": "",
    "showInQuickbar": false,
    "slotCost": 1
  },
  "flags": {},
  "img": "systems/pf1/icons/spells/horror-eerie-1.jpg",
  "effects": []
}