{
  "_id": "ip9onjfp6nf1vlv9",
  "name": "Light",
  "permission": {
    "default": 0
  },
  "type": "spell",
  "data": {
    "description": {
      "value": "<div class=\"spell-description\">\r\n  <p>\r\n    <strong>Casting Time</strong>&nbsp;1 standard<br>\r\n    <strong>Components</strong>&nbsp;V, M (a firefly)<br>\r\n  </p>\r\n  <p>\r\n    <strong>Range</strong>&nbsp;close (5 ft. + 5 ft./4 levels)<br>\r\n    \r\n    <strong>Targets</strong>&nbsp;One object<br>\r\n    \r\n    <strong>Duration</strong>&nbsp;10 min./level<br>\r\n    \r\n    <strong>Spell Resistance</strong>&nbsp;no<br>\r\n  </p>\r\n  <h2>Description</h2>\r\n  <p>A touched object glows like a torch. The light creates a 20ft radius of Bright light similar to a torch.</p>\r\n</div>\r\n",
      "chat": "",
      "unidentified": ""
    },
    "tags": [],
    "activation": {
      "cost": 1,
      "type": "standard"
    },
    "unchainedAction": {
      "activation": {
        "cost": 2,
        "type": "action"
      }
    },
    "duration": {
      "value": null,
      "units": ""
    },
    "target": {
      "value": "One object"
    },
    "range": {
      "value": null,
      "units": "close",
      "maxIncrements": 1,
      "minValue": null,
      "minUnits": ""
    },
    "uses": {
      "value": 0,
      "max": 0,
      "per": "",
      "autoDeductCharges": true,
      "autoDeductChargesCost": "1"
    },
    "measureTemplate": {
      "type": "",
      "size": "0",
      "overrideColor": false,
      "customColor": "",
      "overrideTexture": false,
      "customTexture": ""
    },
    "attackName": "",
    "actionType": "",
    "attackBonus": "",
    "critConfirmBonus": "",
    "damage": {
      "parts": [],
      "critParts": [],
      "nonCritParts": []
    },
    "attackParts": [],
    "formulaicAttacks": {
      "count": {
        "formula": "",
        "value": null
      },
      "bonus": {
        "formula": ""
      },
      "label": null
    },
    "formula": "",
    "ability": {
      "attack": "",
      "damage": "",
      "damageMult": 1,
      "critRange": 20,
      "critMult": 2
    },
    "save": {
      "dc": 0,
      "type": "",
      "description": ""
    },
    "effectNotes": "",
    "attackNotes": [],
    "soundEffect": "",
    "links": {
      "children": []
    },
    "flags": {
      "boolean": [],
      "dictionary": []
    },
    "level": 0,
    "clOffset": 0,
    "slOffset": 0,
    "school": "light",
    "traits": {
      "air": false,
      "ast": false,
      "bln": false,
      "bom": false,
      "cnf": false,
      "cmb": false,
      "crr": false,
      "ert": false,
      "eth": false,
      "fir": false,
      "frz": false,
      "lgh": true,
      "nat": false,
      "ser": false,
      "shd": false,
      "shc": false,
      "wtr": false,
      "wth": false
    },
    "conditionals": [],
    "components": {
      "value": "",
      "verbal": true,
      "somatic": false,
      "material": true,
      "focus": false
    },
    "castTime": "",
    "materials": {
      "value": "a firefly",
      "focus": "",
      "spValue": 0
    },
    "spellbook": "divine",
    "autoDeductCharges": false,
    "atWill": false,
    "sr": false,
    "shortDescription": "<p>A touched object glows like a torch. The light creates a 20ft radius of Bright light similar to a torch.</p>",
    "spellDuration": "10 min./level",
    "spellEffect": "",
    "spellArea": "",
    "showInQuickbar": false,
    "slotCost": 1
  },
  "flags": {},
  "img": "systems/pf1/icons/spells/light-air-fire-1.jpg",
  "effects": []
}