{
  "_id": "yk5bgi6j9kbtigof",
  "name": "Sanctuary",
  "permission": {
    "default": 0
  },
  "type": "spell",
  "data": {
    "description": {
      "value": "<div class=\"spell-description\">\r\n  <p>\r\n    <strong>Casting Time</strong>&nbsp;1 standard<br>\r\n    <strong>Components</strong>&nbsp;V, S<br>\r\n  </p>\r\n  <p>\r\n    <strong>Range</strong>&nbsp;close (5 ft. + 5 ft./4 levels)<br>\r\n    \r\n    <strong>Targets</strong>&nbsp;One creature<br>\r\n    \r\n    <strong>Duration</strong>&nbsp;1 round/level<br>\r\n    \r\n    <strong>Saving Throw</strong>&nbsp;Mind Save; see text<br>\r\n    \r\n    <strong>Spell Resistance</strong>&nbsp;no<br>\r\n  </p>\r\n  <h2>Description</h2>\r\n  <p>Divine forces ward a creature against incoming hostility. Any creature attempting to make an attack against the warded creature must make a Mind Save first. The subject cannot attack without breaking the spell but may use non-attack spells or otherwise act.</p> \n <p><i>Crit Fail:</i> Creature wastes action and can’t target the warded creature for the duration of the spell</p> \n<p><i>Fail:</i> Creature wastes action and can’t attack the warded creature this turn</p> \n<p><i>Success:</i> Creature can attack the warded creature this turn</p> \n<p><i>Crit Success:</i> Spell ends</p>\r\n</div>\r\n",
      "chat": "",
      "unidentified": ""
    },
    "tags": [],
    "activation": {
      "cost": 1,
      "type": "standard"
    },
    "unchainedAction": {
      "activation": {
        "cost": 2,
        "type": "action"
      }
    },
    "duration": {
      "value": null,
      "units": ""
    },
    "target": {
      "value": "One creature"
    },
    "range": {
      "value": null,
      "units": "close",
      "maxIncrements": 1,
      "minValue": null,
      "minUnits": ""
    },
    "uses": {
      "value": 0,
      "max": 0,
      "per": "",
      "autoDeductCharges": true,
      "autoDeductChargesCost": "1"
    },
    "measureTemplate": {
      "type": "",
      "size": "0",
      "overrideColor": false,
      "customColor": "",
      "overrideTexture": false,
      "customTexture": ""
    },
    "attackName": "",
    "actionType": "spellsave",
    "attackBonus": "",
    "critConfirmBonus": "",
    "damage": {
      "parts": [],
      "critParts": [],
      "nonCritParts": []
    },
    "attackParts": [],
    "formulaicAttacks": {
      "count": {
        "formula": "",
        "value": null
      },
      "bonus": {
        "formula": ""
      },
      "label": null
    },
    "formula": "",
    "ability": {
      "attack": "",
      "damage": "",
      "damageMult": 1,
      "critRange": 20,
      "critMult": 2
    },
    "save": {
      "dc": "0",
      "type": "mndSave",
      "description": "Mind Save; see text"
    },
    "effectNotes": "",
    "attackNotes": [],
    "soundEffect": "",
    "links": {
      "children": []
    },
    "flags": {
      "boolean": [],
      "dictionary": []
    },

    "level": 1,
    "clOffset": 0,
    "slOffset": 0,
    "school": "light",
    "traits": {
      "air": false,
      "ast": false,
      "bln": true,
      "bom": false,
      "cnf": false,
      "cmb": false,
      "crr": false,
      "ert": false,
      "eth": false,
      "fir": false,
      "frz": false,
      "lgh": true,
      "nat": false,
      "ser": false,
      "shd": false,
      "shc": false,
      "wtr": false,
      "wth": false
    },
    "conditionals": [],
    "components": {
      "value": "",
      "verbal": true,
      "somatic": true,
      "material": false,
      "focus": false
    },
    "castTime": "",
    "materials": {
      "value": "",
      "focus": "",
      "spValue": 0
    },
    "spellbook": "divine",
    "autoDeductCharges": true,
    "atWill": false,
    "sr": false,
    "shortDescription": "<p>Divine forces ward a creature against incoming hostility. Any creature attempting to make an attack against the warded creature must make a Mind Save first. The subject cannot attack without breaking the spell but may use non-attack spells or otherwise act.</p> \n <p><i>Crit Fail:</i> Creature wastes action and can’t target the warded creature for the duration of the spell</p> \n<p><i>Fail:</i> Creature wastes action and can’t attack the warded creature this turn</p> \n<p><i>Success:</i> Creature can attack the warded creature this turn</p> \n<p><i>Crit Success:</i> Spell ends</p>",
    "spellDuration": "1 round/level",
    "spellEffect": "",
    "spellArea": "",
    "showInQuickbar": false,
    "slotCost": 1
  },
  "flags": {},
  "img": "systems/pf1/icons/spells/haste-royal-1.jpg",
  "effects": []
}