{
  "_id": "q4ixxjb4v281g2xv",
  "name": "Scorching Ray",
  "permission": {
    "default": 0
  },
  "type": "spell",
  "data": {
    "description": {
      "value": "<div class=\"spell-description\">\r\n  <p>\r\n    <strong>Casting Time</strong>&nbsp;1 standard<br>\r\n    <strong>Components</strong>&nbsp;V, S<br>\r\n  </p>\r\n  <p>\r\n    <strong>Range</strong>&nbsp;medium (50 ft. + 5 ft./level)<br>\r\n    \r\n    <strong>Targets</strong>&nbsp;One target per ray<br>\r\n    \r\n    <strong>Duration</strong>&nbsp;instantaneous<br>\r\n    \r\n    <strong>Spell Resistance</strong>&nbsp;yes<br>\r\n  </p>\r\n  <h2>Description</h2>\r\n  <p>You blast your enemies with a searing beam of fire. You may fire one ray, plus one additional ray for every six caster levels beyond 3rd (to a maximum of three rays). Each ray deals 4d6 points of fire damage. The rays may be fired at the same or different targets, but all rays must be aimed at targets within 30 feet of each other and fired simultaneously.</p>\r\n</div>\r\n",
      "chat": "",
      "unidentified": ""
    },
    "tags": [],
    "activation": {
      "cost": 1,
      "type": "standard"
    },
    "unchainedAction": {
      "activation": {
        "cost": 2,
        "type": "action"
      }
    },
    "duration": {
      "value": null,
      "units": ""
    },
    "target": {
      "value": "One target per ray"
    },
    "range": {
      "value": null,
      "units": "medium",
      "maxIncrements": 1,
      "minValue": null,
      "minUnits": ""
    },
    "uses": {
      "value": 0,
      "max": 0,
      "per": "",
      "autoDeductCharges": true,
      "autoDeductChargesCost": "1"
    },
    "measureTemplate": {
      "type": "",
      "size": "0",
      "overrideColor": false,
      "customColor": "",
      "overrideTexture": false,
      "customTexture": ""
    },
    "attackName": "Ray",
    "actionType": "ray",
    "attackBonus": "",
    "critConfirmBonus": "",
    "damage": {
      "parts": [
        [
          "4d6",
          "Fire"
        ]
      ],
      "critParts": [],
      "nonCritParts": []
    },
    "attackParts": [],
    "formulaicAttacks": {
      "count": {
        "formula": "min(3, floor((@cl + 3) / 6)) - 1",
        "value": null
      },
      "bonus": {
        "formula": ""
      },
      "label": "Ray #{0}"
    },
    "formula": "",
    "ability": {
      "attack": "",
      "damage": "",
      "damageMult": 1,
      "critRange": 20,
      "critMult": 2
    },
    "save": {
      "dc": 0,
      "type": "",
      "description": ""
    },
    "effectNotes": "",
    "attackNotes": [],
    "soundEffect": "",
    "links": {
      "children": []
    },
    "flags": {
      "boolean": [],
      "dictionary": []
    },
    "level": 2,
    "clOffset": 0,
    "slOffset": 0,
    "school": "fire",
    "traits": {
      "air": false,
      "ast": false,
      "bln": false,
      "bom": false,
      "cnf": false,
      "cmb": false,
      "crr": false,
      "ert": false,
      "eth": false,
      "fir": true,
      "frz": false,
      "lgh": false,
      "nat": false,
      "ser": true,
      "shd": false,
      "shc": false,
      "wtr": false,
      "wth": false
    },
    "conditionals": [],
    "components": {
      "value": "",
      "verbal": true,
      "somatic": true,
      "material": false,
      "focus": false
    },
    "castTime": "",
    "materials": {
      "value": "",
      "focus": "",
      "spValue": 0
    },
    "spellbook": "arcane",
    "autoDeductCharges": true,
    "atWill": false,
    "sr": true,
    "shortDescription": "<p>You blast your enemies with a searing beam of fire. You may fire one ray, plus one additional ray for every six caster levels beyond 3rd (to a maximum of three rays). Each ray deals 4d6 points of fire damage. The rays may be fired at the same or different targets, but all rays must be aimed at targets within 30 feet of each other and fired simultaneously.</p>",
    "spellDuration": "instantaneous",
    "spellEffect": "",
    "spellArea": "",
    "showInQuickbar": false,
    "slotCost": 1
  },
  "flags": {},
  "img": "systems/pf1/icons/spells/beam-red-2.jpg",
  "effects": []
}