{
  "_id": "8rf2ucrtzmxooyw6",
  "name": "Shockwave",
  "permission": {
    "default": 0
  },
  "type": "spell",
  "data": {
    "description": {
      "value": "<div class=\"spell-description\">\r\n  <p>\r\n    <strong>Casting Time</strong>&nbsp;1 standard<br>\r\n    <strong>Components</strong>&nbsp;V<br>\r\n  </p>\r\n  <p>\r\n    <strong>Range</strong>&nbsp;personal<br>\r\n    \r\n    <strong>Area</strong>&nbsp;5ft radius Emanation<br>\r\n    \r\n    <strong>Duration</strong>&nbsp;instantaneous<br>\r\n    \r\n    <strong>Saving Throw</strong>&nbsp;Body Save Negates<br>\r\n    \r\n    <strong>Spell Resistance</strong>&nbsp;yes<br>\r\n  </p>\r\n  <h2>Description</h2>\r\n  <p>A wave of force erupts from your chest pushing back every creature around you and destroying fragile objects. All targets, except you, must make a Basic Body Save or take 1d3 force damage, in addition, on failure, targets are pushed 5ft directly away from you. Fragile objects affected by this spell are shattered.</p>\r\n</div>\r\n",
      "chat": "",
      "unidentified": ""
    },
    "tags": [],
    "activation": {
      "cost": 1,
      "type": "standard"
    },
    "unchainedAction": {
      "activation": {
        "cost": 2,
        "type": "action"
      }
    },
    "duration": {
      "value": null,
      "units": ""
    },
    "target": {
      "value": ""
    },
    "range": {
      "value": null,
      "units": "personal",
      "maxIncrements": 1,
      "minValue": null,
      "minUnits": ""
    },
    "uses": {
      "value": 0,
      "max": 0,
      "per": "",
      "autoDeductCharges": true,
      "autoDeductChargesCost": "1"
    },
    "measureTemplate": {
      "type": "circle",
      "size": "5",
      "overrideColor": false,
      "customColor": "",
      "overrideTexture": false,
      "customTexture": ""
    },
    "attackName": "",
    "actionType": "spellsave",
    "attackBonus": "",
    "critConfirmBonus": "",
    "damage": {
      "parts": [
        [
          "1d3",
          "Force"
        ]
      ],
      "critParts": [],
      "nonCritParts": []
    },
    "attackParts": [],
    "formulaicAttacks": {
      "count": {
        "formula": "",
        "value": null
      },
      "bonus": {
        "formula": ""
      },
      "label": null
    },
    "formula": "",
    "ability": {
      "attack": "",
      "damage": "",
      "damageMult": 1,
      "critRange": 20,
      "critMult": 2
    },
    "save": {
      "dc": "0",
      "type": "bdySave",
      "description": "Body Save Negates"
    },
    "effectNotes": "",
    "attackNotes": [],
    "soundEffect": "",
    "links": {
      "children": []
    },
    "flags": {
      "boolean": [],
      "dictionary": []
    },
    "level": 0,
    "clOffset": 0,
    "slOffset": 0,
    "school": "ethereal",
    "traits": {
      "air": false,
      "ast": false,
      "bln": false,
      "bom": true,
      "cnf": false,
      "cmb": false,
      "crr": false,
      "ert": false,
      "eth": true,
      "fir": false,
      "frz": false,
      "lgh": false,
      "nat": false,
      "ser": false,
      "shd": false,
      "shc": false,
      "wtr": false,
      "wth": false
    },
    "conditionals": [],
    "components": {
      "value": "",
      "verbal": true,
      "somatic": true,
      "material": false,
      "focus": false
    },
    "castTime": "",
    "materials": {
      "value": "",
      "focus": "",
      "spValue": 0
    },
    "spellbook": "divine",
    "autoDeductCharges": false,
    "atWill": false,
    "sr": true,
    "shortDescription": "<p>A wave of force erupts from your chest pushing back every creature around you and destroying fragile objects. All targets, except you, must make a Basic Body Save or take 1d3 force damage, in addition, on failure, targets are pushed 5ft directly away from you. Fragile objects affected by this spell are shattered.</p>",
    "spellDuration": "instantaneous",
    "spellEffect": "",
    "spellArea": "5ft radius Emanation",
    "showInQuickbar": false,
    "slotCost": 1
  },
  "flags": {},
  "img": "systems/pf1/icons/spells/air-burst-air-1.jpg",
  "effects": []
}