{
  "name": "Shroud of Faith",
  "type": "spell",
  "img": "systems/pf1/icons/spells/protect-sky-1.jpg",
  "data": {
    "description": {
      "value": "",
      "chat": "",
      "unidentified": ""
    },
    "tags": [],
    "activation": {
      "cost": 1,
      "type": "standard"
    },
    "unchainedAction": {
      "activation": {
        "cost": 1,
        "type": ""
      }
    },
    "duration": {
      "value": null,
      "units": ""
    },
    "target": {
      "value": "One Creature"
    },
    "range": {
      "value": null,
      "units": "close",
      "maxIncrements": 1,
      "minValue": null,
      "minUnits": ""
    },
    "uses": {
      "value": 0,
      "per": null,
      "autoDeductCharges": true,
      "autoDeductChargesCost": "1",
      "maxFormula": ""
    },
    "measureTemplate": {
      "type": "",
      "size": "",
      "overrideColor": false,
      "customColor": "",
      "overrideTexture": false,
      "customTexture": ""
    },
    "attackName": "",
    "actionType": "",
    "attackBonus": "",
    "critConfirmBonus": "",
    "damage": {
      "parts": [],
      "critParts": [],
      "nonCritParts": []
    },
    "attackParts": [],
    "formulaicAttacks": {
      "count": {
        "formula": "",
        "value": null
      },
      "bonus": {
        "formula": ""
      },
      "label": null
    },
    "formula": "",
    "ability": {
      "attack": null,
      "damage": "",
      "damageMult": 1,
      "critRange": 20,
      "critMult": 2
    },
    "save": {
      "dc": "0",
      "type": "",
      "description": ""
    },
    "effectNotes": [],
    "attackNotes": [],
    "soundEffect": "",
    "links": {
      "children": []
    },
    "flags": {
      "boolean": [],
      "dictionary": []
    },
    "scriptCalls": [],
    "level": 4,
    "clOffset": 0,
    "slOffset": 0,
    "school": "shadow",
    "types": "",
    "traits": {
      "air": false,
      "ast": false,
      "cmb": false,
      "ert": false,
      "eth": false,
      "fir": false,
      "lgh": false,
      "nat": false,
      "shd": true,
      "wtr": false,
      "bln": false,
      "bom": false,
      "cnf": false,
      "crr": false,
      "frz": false,
      "ser": false,
      "shc": false,
      "wth": false
    },
    "conditionals": [],
    "components": {
      "value": "",
      "verbal": true,
      "somatic": true,
      "thought": false,
      "emotion": false,
      "material": true,
      "focus": false
    },
    "castTime": "",
    "materials": {
      "value": "Granite and Diamond Dust",
      "focus": "",
      "spValue": 25
    },
    "spellbook": "divine",
    "atWill": false,
    "autoDeductCharges": true,
    "sr": false,
    "shortDescription": "<p><span id=\"docs-internal-guid-30d338a4-7fff-05b4-2438-a98187762776\">A mystical shadow strengthens the creature giving them resistance to blows, cuts, stabs, and slashes. The subject gains DR 10/Physical (Non-Adamantine). It ignores the first 10 points of damage each time it takes damage from a weapon, though an adamantine weapon bypasses the reduction. Once the spell has prevented a total of 10 points of damage per caster level (maximum 150 points), it is discharged.</span></p>",
    "spellDuration": "10min/level or until discharged.",
    "spellEffect": "",
    "spellArea": "",
    "showInQuickbar": false,
    "clCheck": false,
    "identifiedName": "Shroud of Faith"
  },
  "effects": [],
  "flags": {}
}