{
  "_id": "qnp4eosajai8s3sf",
  "name": "Sleet Storm",
  "permission": {
    "default": 0
  },
  "type": "spell",
  "data": {
    "description": {
      "value": "<div class=\"spell-description\">\r\n  <p>\r\n    <strong>Casting Time</strong>&nbsp;1 standard<br>\r\n    <strong>Components</strong>&nbsp;V, S, M (dust and water)<br>\r\n  </p>\r\n  <p>\r\n    <strong>Range</strong>&nbsp;long (100 ft. + 10 ft./level)<br>\r\n    \r\n    <strong>Area</strong>&nbsp;40ft radius, 40ft high Cylinder<br>\r\n    \r\n    <strong>Duration</strong>&nbsp;1 round/level<br>\r\n    \r\n    <strong>Spell Resistance</strong>&nbsp;no<br>\r\n  </p>\r\n  <h2>Description</h2>\r\n  <p>Driving sleet blocks all sight (even darkvision) within it and causes the ground in the area to be icy. A creature can walk within or through the area at half normal speed with a DC 15 Body Save. Failure means it can’t move that round (and must then make a Body save or fall DC 15), while a Critical Failure means it falls prone. Creatures in the area gain Susceptible(Freezing) 6 and torches and small fires are extinguished.</p>\r\n</div>\r\n",
      "chat": "",
      "unidentified": ""
    },
    "tags": [],
    "activation": {
      "cost": 1,
      "type": "standard"
    },
    "unchainedAction": {
      "activation": {
        "cost": 2,
        "type": "action"
      }
    },
    "duration": {
      "value": null,
      "units": ""
    },
    "target": {
      "value": ""
    },
    "range": {
      "value": null,
      "units": "long",
      "maxIncrements": 1,
      "minValue": null,
      "minUnits": ""
    },
    "uses": {
      "value": 0,
      "max": 0,
      "per": "",
      "autoDeductCharges": true,
      "autoDeductChargesCost": "1"
    },
    "measureTemplate": {
      "type": "circle",
      "size": "40",
      "overrideColor": false,
      "customColor": "",
      "overrideTexture": false,
      "customTexture": ""
    },
    "attackName": "",
    "actionType": "",
    "attackBonus": "",
    "critConfirmBonus": "",
    "damage": {
      "parts": [],
      "critParts": [],
      "nonCritParts": []
    },
    "attackParts": [],
    "formulaicAttacks": {
      "count": {
        "formula": "",
        "value": null
      },
      "bonus": {
        "formula": ""
      },
      "label": null
    },
    "formula": "",
    "ability": {
      "attack": "",
      "damage": "",
      "damageMult": 1,
      "critRange": 20,
      "critMult": 2
    },
    "save": {
      "dc": 0,
      "type": "",
      "description": ""
    },
    "effectNotes": "",
    "attackNotes": [],
    "soundEffect": "",
    "links": {
      "children": []
    },
    "flags": {
      "boolean": [],
      "dictionary": []
    },
    "level": 3,
    "clOffset": 0,
    "slOffset": 0,
    "school": "water",
    "traits": {
      "air": false,
      "ast": false,
      "bln": false,
      "bom": false,
      "cnf": false,
      "cmb": false,
      "crr": false,
      "ert": false,
      "eth": false,
      "fir": false,
      "frz": false,
      "lgh": false,
      "nat": false,
      "ser": false,
      "shd": false,
      "shc": false,
      "wtr": true,
      "wth": false
    },
    "conditionals": [],
    "components": {
      "value": "",
      "verbal": true,
      "somatic": true,
      "material": true,
      "focus": false
    },
    "castTime": "",
    "materials": {
      "value": "dust and water",
      "focus": "",
      "spValue": 0
    },
    "spellbook": "arcane",
    "autoDeductCharges": true,
    "atWill": false,
    "sr": false,
    "shortDescription": "<p>Driving sleet blocks all sight (even darkvision) within it and causes the ground in the area to be icy. A creature can walk within or through the area at half normal speed with a DC 15 Body Save. Failure means it can’t move that round (and must then make a Body save or fall DC 15), while a Critical Failure means it falls prone. Creatures in the area gain Susceptible(Freezing) 6 and torches and small fires are extinguished.</p>",
    "spellDuration": "1 round/level",
    "spellEffect": "",
    "spellArea": "40ft radius, 40ft high Cylinder",
    "showInQuickbar": false,
    "slotCost": 1
  },
  "flags": {},
  "img": "systems/pf1/icons/spells/air-burst-sky-2.jpg",
  "effects": []
}