{
  "name": "Stone Shield",
  "type": "spell",
  "img": "icons/magic/earth/barrier-stone-explosion-spiked.webp",
  "data": {
    "description": {
      "value": "<div class=\"spell-description\">\r\n  <p>\r\n    <strong>Casting Time</strong>&nbsp;1 immediate<br>\r\n    <strong>Components</strong>&nbsp;V, S<br>\r\n    <strong>Traits</strong>&nbsp;Earth<br>\r\n  </p>\r\n  <p>\r\n    <strong>Range</strong>&nbsp;close (5 ft. + 5 ft./4 levels)<br>\r\n    \r\n    \r\n    \r\n    <strong>Duration</strong>&nbsp;1 round<br>\r\n    \r\n    <strong>Spell Resistance</strong>&nbsp;no<br>\r\n  </p>\r\n  <h2>Description</h2>\r\n  <p>A 1-inch-thick slab of stone springs up from the ground. The stone shield provides cover from one direction until the beginning of your next turn, granting a +4 bonus to Armor Class and a +2 bonus on Body saving throws. If the opponent&rsquo;s attack misses you by 4 or less, the attack strikes the shield instead. The stone shield has hardness 8 and 15 hit points. If the shield is destroyed, the spell ends and the shield crumbles away into nothingness. Spells and effects that damage an area deal damage to the shield.&nbsp;</p>\n<p>You cannot use this spell if you are not adjacent to a large area of earth or stone such as the ground or a wall.</p>\r\n</div>\r\n",
      "chat": "",
      "unidentified": ""
    },
    "tags": [],
    "activation": {
      "cost": 1,
      "type": "immediate"
    },
    "unchainedAction": {
      "activation": {
        "cost": 1,
        "type": ""
      }
    },
    "duration": {
      "value": null,
      "units": ""
    },
    "target": {
      "value": ""
    },
    "range": {
      "value": null,
      "units": "close",
      "maxIncrements": 1,
      "minValue": null,
      "minUnits": ""
    },
    "uses": {
      "value": 0,
      "max": 0,
      "per": null,
      "autoDeductCharges": true,
      "autoDeductChargesCost": "1"
    },
    "measureTemplate": {
      "type": "",
      "size": "",
      "overrideColor": false,
      "customColor": "",
      "overrideTexture": false,
      "customTexture": ""
    },
    "attackName": "",
    "actionType": "",
    "attackBonus": "",
    "critConfirmBonus": "",
    "damage": {
      "parts": [],
      "critParts": [],
      "nonCritParts": []
    },
    "attackParts": [],
    "formulaicAttacks": {
      "count": {
        "formula": "",
        "value": null
      },
      "bonus": {
        "formula": ""
      },
      "label": null
    },
    "formula": "",
    "ability": {
      "attack": null,
      "damage": null,
      "damageMult": 1,
      "critRange": 20,
      "critMult": 2
    },
    "save": {
      "dc": 0,
      "type": "",
      "description": ""
    },
    "effectNotes": "",
    "attackNotes": [],
    "soundEffect": "",
    "links": {
      "children": []
    },
    "flags": {
      "boolean": [],
      "dictionary": []
    },
    "scriptCalls": [],
    "level": 1,
    "clOffset": 0,
    "slOffset": 0,
    "school": "earth",
    "types": "",
    "traits": {
      "air": false,
      "ast": false,
      "bln": false,
      "bom": false,
      "cmb": true,
      "cnf": false,
      "crr": false,
      "ert": true,
      "eth": false,
      "fir": false,
      "frz": false,
      "lgh": false,
      "nat": false,
      "ser": false,
      "shd": false,
      "shc": false,
      "wtr": false,
      "wth": false
    },
    "conditionals": [],
    "components": {
      "value": "",
      "verbal": true,
      "somatic": true,
      "material": false,
      "focus": false
    },
    "castTime": "",
    "materials": {
      "value": "",
      "focus": "",
      "spValue": 0
    },
    "spellbook": "arcane",
    "atWill": false,
    "autoDeductCharges": true,
    "sr": false,
    "shortDescription": "<p>A 1-inch-thick slab of stone springs up from the ground. The stone shield provides cover from one direction until the beginning of your next turn, granting a +4 bonus to Armor Class and a +2 bonus on Body saving throws. If the opponent&rsquo;s attack misses you by 4 or less, the attack strikes the shield instead. The stone shield has hardness 8 and 15 hit points. If the shield is destroyed, the spell ends and the shield crumbles away into nothingness. Spells and effects that damage an area deal damage to the shield.&nbsp;</p>\n<p>You cannot use this spell if you are not adjacent to a large area of earth or stone such as the ground or a wall.</p>",
    "spellDuration": "1 round",
    "spellEffect": "",
    "spellArea": "",
    "showInQuickbar": false,
    "identifiedName": "Stone Shield"
  },
  "effects": [],
  "sort": 0,
  "flags": {}
}