{
  "name": "Telekinesis",
  "type": "spell",
  "img": "icons/magic/movement/trail-streak-zigzag-teal.webp",
  "data": {
    "description": {
      "value": "",
      "chat": "",
      "unidentified": ""
    },
    "tags": [],
    "activation": {
      "cost": 1,
      "type": "standard"
    },
    "unchainedAction": {
      "activation": {
        "cost": 1,
        "type": ""
      }
    },
    "duration": {
      "value": null,
      "units": ""
    },
    "target": {
      "value": "See text"
    },
    "range": {
      "value": null,
      "units": "long",
      "maxIncrements": 1,
      "minValue": null,
      "minUnits": ""
    },
    "uses": {
      "value": 0,
      "per": null,
      "autoDeductCharges": true,
      "autoDeductChargesCost": "1",
      "maxFormula": ""
    },
    "measureTemplate": {
      "type": "circle",
      "size": "floor(@cl/4) * 5",
      "overrideColor": false,
      "customColor": "",
      "overrideTexture": false,
      "customTexture": ""
    },
    "attackName": "",
    "actionType": "save",
    "attackBonus": "",
    "critConfirmBonus": "",
    "damage": {
      "parts": [
        [
          "5d8 + @cl",
          "Force"
        ]
      ],
      "critParts": [],
      "nonCritParts": []
    },
    "attackParts": [],
    "formulaicAttacks": {
      "count": {
        "formula": "",
        "value": null
      },
      "bonus": {
        "formula": ""
      },
      "label": null
    },
    "formula": "",
    "ability": {
      "attack": null,
      "damage": "",
      "damageMult": 1,
      "critRange": 20,
      "critMult": 2
    },
    "save": {
      "dc": "15",
      "type": "sprSave",
      "description": "Spirit Save Negates"
    },
    "effectNotes": [],
    "attackNotes": [],
    "soundEffect": "",
    "links": {
      "children": []
    },
    "flags": {
      "boolean": [],
      "dictionary": []
    },
    "scriptCalls": [],
    "level": 5,
    "clOffset": 0,
    "slOffset": 0,
    "school": "ethereal",
    "types": "",
    "traits": {
      "air": false,
      "ast": false,
      "cmb": false,
      "ert": false,
      "eth": true,
      "fir": false,
      "lgh": false,
      "nat": false,
      "shd": false,
      "wtr": false,
      "bln": false,
      "bom": false,
      "cnf": false,
      "crr": false,
      "frz": false,
      "ser": false,
      "shc": false,
      "wth": false
    },
    "conditionals": [],
    "components": {
      "value": "",
      "verbal": true,
      "somatic": true,
      "thought": false,
      "emotion": false,
      "material": false,
      "focus": false
    },
    "castTime": "",
    "materials": {
      "value": "",
      "focus": "",
      "spValue": 0
    },
    "spellbook": "",
    "atWill": false,
    "autoDeductCharges": true,
    "sr": true,
    "shortDescription": "<p>You move objects or creatures by concentrating on them. Depending on the version selected, the spell can provide a gentle, sustained force, perform a variety of combat maneuvers, or exert a single short, violent thrust.</p>\n<p><strong>Sustained Force</strong></p>\n<p>A sustained force moves an object no more than 5 Bulk per caster level up to 20 feet per round. A creature can negate the effect on an object it possesses with a successful DC 15 Spirit Save. This version of the spell can last 1 round per caster level, but it ends if you cease concentration. The bulk can be moved vertically, horizontally, or in both directions - as well as rotated and controlled. An object cannot be moved beyond your range. The spell ends if the object is forced beyond the range. If you cease concentration for any reason, the object falls or stops.</p>\n<p><strong>Combat Maneuver</strong></p>\n<p>Alternatively, once per round, you can use telekinesis to perform a bull rush, disarm, grapple (including pin), or trip. Resolve these attempts as normal, except that they don&rsquo;t provoke attacks of opportunity, you use your Concentration in place of your Combat Maneuver Bonus. No save is allowed against these attempts, but spell resistance applies normally. This version of the spell can last 1 round per caster level, but it ends if you cease concentration.</p>\n<p><strong>Violent Collapse</strong></p>\n<p>Alternatively, the spell energy can be spent in a single round. You can pull nearby objects and creatures to a central point, dealing immense damage. You can hurl all objects and creatures that are within 5 feet per four caster levels of the primary target. You can hurl up to a total bulk of 5 bulk per caster level. The primary target must make a DC 15 Spirit Save or suffer 5d8 point of force damage +1 point per caster level.</p>\n<p>Creatures who fall within the bulk capacity of the spell can be hurled, but they are allowed DC 15 Spirit Saves (and spell resistance) to negate the effect, as are those whose held possessions are pulled by the spell.</p>",
    "spellDuration": "1 round/level (C) or instantaneous",
    "spellEffect": "",
    "spellArea": "",
    "showInQuickbar": false,
    "clCheck": false,
    "identifiedName": "Telekinesis"
  },
  "effects": [],
  "flags": {}
}