{
  "name": "Wall of Ice",
  "type": "spell",
  "img": "icons/magic/water/barrier-ice-crystal-wall-jagged-blue.webp",
  "data": {
    "description": {
      "value": "<div class=\"spell-description\">\r\n  <p>\r\n    <strong>Casting Time</strong>&nbsp;1 standard<br>\r\n    <strong>Components</strong>&nbsp;V, S, M (a piece of quartz or rock crystal)<br>\r\n    <strong>Traits</strong>&nbsp;Water<br>\r\n  </p>\r\n  <p>\r\n    <strong>Range</strong>&nbsp;medium (50 ft. + 5 ft./level)<br>\r\n    <strong>Area</strong>&nbsp;10ft per level Line<br>\r\n    \r\n    \r\n    <strong>Duration</strong>&nbsp;1 min per level<br>\r\n    <strong>Saving Throw</strong>&nbsp;Body allows to choose side<br>\r\n    <strong>Spell Resistance</strong>&nbsp;no<br>\r\n  </p>\r\n  <h2>Description</h2>\r\n  <p>This spell creates a solid wall of ice, 10-foot length per Caster Level. Adjacent creatures may attempt a Body Save to jump to the other side of the wall DC 15 as it is erected. The wall is 1-foot thick and 10-foot tall, this height is doubled when cast over terrain containing enough Water, or Water effects.</p>\n<p>Fire can melt the wall of ice, and it deals full damage to the wall (instead of the normal half damage taken by objects). Suddenly melting a wall of ice creates a great cloud of steamy fog that lasts for 10 minutes.</p>\n<p>Each 10-foot square of wall has [[5*@cl]] hit points with Hardness 5. Creatures can hit the wall automatically. A section of wall whose hit points drop to 0 is breached. If a creature tries to break through the wall with a single attack, the DC for the Strength check is 20.</p>\r\n</div>\r\n",
      "chat": "",
      "unidentified": ""
    },
    "tags": [],
    "activation": {
      "cost": 1,
      "type": "standard"
    },
    "unchainedAction": {
      "activation": {
        "cost": 2,
        "type": "action"
      }
    },
    "duration": {
      "value": null,
      "units": ""
    },
    "target": {
      "value": ""
    },
    "range": {
      "value": null,
      "units": "medium",
      "maxIncrements": 1,
      "minValue": null,
      "minUnits": ""
    },
    "uses": {
      "value": 0,
      "max": 0,
      "per": null,
      "autoDeductCharges": true,
      "autoDeductChargesCost": "1"
    },
    "measureTemplate": {
      "type": "ray",
      "size": "10*@cl",
      "overrideColor": true,
      "customColor": "#0047a3",
      "overrideTexture": false,
      "customTexture": ""
    },
    "attackName": "",
    "actionType": "save",
    "attackBonus": "",
    "critConfirmBonus": "",
    "damage": {
      "parts": [],
      "critParts": [],
      "nonCritParts": []
    },
    "attackParts": [],
    "formulaicAttacks": {
      "count": {
        "formula": "",
        "value": null
      },
      "bonus": {
        "formula": ""
      },
      "label": null
    },
    "formula": "",
    "ability": {
      "attack": null,
      "damage": "",
      "damageMult": 1,
      "critRange": 20,
      "critMult": 2
    },
    "save": {
      "dc": "15",
      "type": "bdySave",
      "description": "Body allows to choose side"
    },
    "effectNotes": "",
    "attackNotes": [],
    "soundEffect": "",
    "links": {
      "children": []
    },
    "flags": {
      "boolean": [],
      "dictionary": []
    },
    "scriptCalls": [],
    "level": 3,
    "clOffset": 0,
    "slOffset": 0,
    "school": "water",
    "types": "",
    "traits": {
      "air": false,
      "ast": false,
      "bln": false,
      "bom": false,
      "cmb": false,
      "cnf": false,
      "crr": false,
      "ert": false,
      "eth": false,
      "fir": false,
      "frz": false,
      "lgh": false,
      "nat": false,
      "ser": false,
      "shd": false,
      "shc": false,
      "wtr": true,
      "wth": false
    },
    "conditionals": [],
    "components": {
      "value": "",
      "verbal": true,
      "somatic": true,
      "material": true,
      "focus": false
    },
    "castTime": "",
    "materials": {
      "value": "a piece of quartz or rock crystal",
      "focus": "",
      "spValue": 0
    },
    "spellbook": "arcane",
    "atWill": false,
    "autoDeductCharges": true,
    "sr": false,
    "shortDescription": "<p>This spell creates a solid wall of ice, 10-foot length per Caster Level. Adjacent creatures may attempt a Body Save to jump to the other side of the wall DC 15 as it is erected. The wall is 1-foot thick and 10-foot tall, this height is doubled when cast over terrain containing enough Water, or Water effects.</p>\n<p>Fire can melt the wall of ice, and it deals full damage to the wall (instead of the normal half damage taken by objects). Suddenly melting a wall of ice creates a great cloud of steamy fog that lasts for 10 minutes.</p>\n<p>Each 10-foot square of wall has [[5*@cl]] hit points with Hardness 5. Creatures can hit the wall automatically. A section of wall whose hit points drop to 0 is breached. If a creature tries to break through the wall with a single attack, the DC for the Strength check is 20.</p>",
    "spellDuration": "1 min per level",
    "spellEffect": "",
    "spellArea": "10ft per level Line",
    "showInQuickbar": false,
    "identifiedName": "Wall of Ice",
    "slotCost": 1
  },
  "effects": [],
  "sort": 0,
  "flags": {}
}