{
  "_id": "OtfbHJhIQsNzmiTN",
  "name": "Diplomacy",
  "content": "<p>The Adventurer can convince others of a hard to believe truth or improve their standing with a person or group.</p>\n<p><strong>Check:</strong> Improving the Adventurer’s standing with a person or group has a base DC of 20. This DC assumes the target is indifferent, the DC is increased by 15 if the target is unfriendly and by 15 more if the target is hostile.   <br /><strong>Action:</strong> Changing the Adventurer’s standing with a person or group usually takes 1 full minute. A rushed check can be made as a full-round action but the check suffers a -10 penalty.</p>",
  "sort": 0,
  "flags": {}
}