{
  "_id": "lP3L1RXi9q4ha9Gu",
  "name": "Lore",
  "content": "<p>The Adventurer is educated in many fields of study and can answer both simple and complex questions.</p>\n<p><strong>Check:</strong> Answering a question within the Adventurer’s field of study has a DC of 10 (for really easy questions), 15 (for basic questions), or 20 to 30 (for really tough questions).   <br /><strong>Action:</strong> Usually none. In most cases, a Lore check to recall knowledge doesn’t take an action.</p>",
  "sort": 0,
  "flags": {}
}