{
  "_id": "HhV5UmaRLTjtB3Xh",
  "name": "Mysticism",
  "content": "<p>The Adventurer can identify religious texts, use relics, and learn miracles. This skill covers dealing with things involving the Spiritual Planes.</p>\n<p><strong>Check:</strong> Answering a question within the Realm of the Spiritual Planes has a DC of 10 (for really easy questions), 15 (for basic questions), or 20 to 30 (for really tough questions).   <br /><strong>Action:</strong> Usually none. In most cases, a Mysticism check to recall knowledge doesn’t take an action.</p>",
  "sort": 0,
  "flags": {}
}