{
  "_id": "AOQsMtvLY4V3wFEL",
  "name": "Reason",
  "content": "<p>The Adventurer has worldly knowledge and can make deductions and observations about their surroundings and opponents. </p>\n<p><strong>Check:</strong> Coming to a solution for a question based on the Adventurer’s current knowledge has a DC of 10 (for really easy conclusions), 15 (for basic conclusions), or 20 to 30 (for really tough conclusions).   <br /><strong>Action:</strong> Usually none. In most cases, a Lore check to recall knowledge doesn’t take an action. </p>\n<p><strong>Check:</strong> Gathering information from people around a town has a base DC of 10. This DC is increased by how specific or withheld the information would be.   <br /><strong>Action:</strong> Gathering information usually takes 1d4 hours.</p>",
  "sort": 0,
  "flags": {}
}