{
  "_id": "TXrxgrB2sQjppZFY",
  "name": "Survival",
  "content": "<p>The Adventurer can keep themselves and others safe and fed in the wilderness. This skill covers following trails and track, as well as identifying natural flora and fauna.</p>\n<p><strong>Check:</strong> To find tracks or to follow them for 1 mile requires a successful Survival check. The Adventurer must make another Survival check every time the tracks become difficult to follow. The Adventurer moves at half speed while following tracks (or at normal speed with a –5 penalty on the check, or at up to twice normal speed with a –20 penalty on the check). The DC depends on the surface and the prevailing conditions.   <br /><strong>Action:</strong> A Survival check made to find tracks is at least a full-round action, and it may take even longer. </p>\n<p><strong>Check:</strong> When attempting to get along in the wild the base DC is 10. The Adventurer can provide food and water for one other person for every 2 points by which their check result exceeds the DC. While foraging in this way the party can only move half their overland speed, moving any faster increases the DC by 20.    <br /><strong>Action:</strong> Varies. A single Survival check may represent activity over the course of hours or a full day.</p>",
  "sort": 0,
  "flags": {}
}